<svg width="240" height="240" viewBox="0 0 240 240" fill="none" xmlns="http://www.w3.org/2000/svg">
<path d="M203.191 206.248C198.473 211.408 194.01 214.742 190.479 217.374C149.01 248.29 99.9353 239.282 89.5082 237.079C74.1068 233.83 44.3352 227.548 22.8129 201.251C-9.74696 161.464 -4.68192 98.7827 20.5773 57.401C25.1969 49.8326 49.5983 7.82525 99.2011 1.0883C129.22 -2.99159 164.214 5.23675 189.547 27.2904C242.738 73.5834 238.952 167.121 203.191 206.248Z" fill="url(#paint0_linear)"/>
<g opacity="0.3">
<path opacity="0.3" d="M37.3069 195.502C37.2327 195.99 36.8037 196.359 36.317 196.325C35.2446 196.265 34.1639 196.153 33.0915 195.999C32.5718 195.922 32.2088 195.425 32.2831 194.885C32.2831 194.876 32.2831 194.876 32.2831 194.867C32.3656 194.336 32.844 193.976 33.3555 194.045C34.3702 194.19 35.4013 194.302 36.416 194.362C36.9357 194.396 37.3399 194.859 37.3151 195.399C37.3151 195.442 37.3069 195.476 37.3069 195.502ZM29.1484 194.079C29.1401 194.113 29.1319 194.156 29.1236 194.19C28.9834 194.713 28.4554 195.022 27.9522 194.867C26.9128 194.559 25.8817 194.208 24.8835 193.813C24.3968 193.616 24.1493 193.05 24.3308 192.545C24.5205 192.039 25.065 191.782 25.5517 191.97C26.5004 192.348 27.482 192.682 28.4719 192.973C28.9421 193.11 29.2226 193.59 29.1484 194.079ZM21.5013 190.813C21.4848 190.925 21.4518 191.028 21.394 191.13C21.1383 191.61 20.5609 191.782 20.1072 191.525C19.1667 190.985 18.2346 190.402 17.3354 189.785C16.8982 189.485 16.7827 188.868 17.0714 188.413C17.3602 187.959 17.9541 187.839 18.3913 188.139C19.241 188.731 20.1237 189.288 21.0228 189.793C21.3858 189.999 21.5673 190.419 21.5013 190.813ZM14.7451 185.859C14.7204 186.039 14.6379 186.211 14.5142 186.356C14.1677 186.759 13.5655 186.802 13.1778 186.433C12.3776 185.688 11.5939 184.899 10.8515 184.094C10.4885 183.699 10.505 183.074 10.8845 182.696C11.2639 182.319 11.8661 182.336 12.2291 182.731C12.9303 183.502 13.6727 184.248 14.4399 184.959C14.6956 185.199 14.7946 185.542 14.7451 185.859ZM9.22637 179.465C9.18512 179.714 9.05313 179.954 8.83865 180.108C8.40969 180.425 7.81574 180.322 7.51877 179.877C6.90007 178.968 6.29788 178.025 5.75343 177.057C5.48945 176.585 5.63794 175.985 6.0834 175.702C6.53711 175.428 7.11456 175.582 7.38678 176.045C7.90649 176.962 8.47569 177.862 9.06138 178.719C9.20987 178.959 9.25937 179.217 9.22637 179.465ZM5.20072 171.957C5.15123 172.282 4.94499 172.574 4.63152 172.711C4.14481 172.925 3.59211 172.685 3.38588 172.18C2.97342 171.151 2.59395 170.088 2.26398 169.025C2.10725 168.503 2.37947 167.954 2.87443 167.783C3.36938 167.62 3.90559 167.903 4.07057 168.417C4.38404 169.428 4.73877 170.431 5.13473 171.417C5.20897 171.597 5.22547 171.785 5.20072 171.957ZM8.50043 135.906C8.47569 136.044 8.43444 136.172 8.35195 136.292C7.791 137.175 7.25479 138.092 6.75983 139.026C6.51236 139.506 5.93491 139.678 5.47295 139.421C5.01099 139.163 4.84601 138.563 5.09348 138.083C5.61319 137.098 6.17414 136.129 6.76809 135.204C7.05681 134.749 7.65076 134.629 8.08797 134.929C8.40969 135.152 8.55818 135.538 8.50043 135.906ZM2.88268 163.72C2.81668 164.123 2.51971 164.457 2.10725 164.534C1.58754 164.628 1.10083 164.268 1.01009 163.728C0.828607 162.631 0.688368 161.508 0.589377 160.394C0.548131 159.854 0.927597 159.374 1.45555 159.323C1.97526 159.28 2.43721 159.674 2.48671 160.223C2.57745 161.277 2.70944 162.34 2.88268 163.386C2.89918 163.506 2.89918 163.617 2.88268 163.72ZM4.73051 143.552C4.72226 143.612 4.70577 143.68 4.68102 143.74C4.31805 144.735 3.99633 145.755 3.71585 146.775C3.57562 147.297 3.04766 147.606 2.54446 147.452C2.04125 147.306 1.74428 146.757 1.89276 146.235C2.18974 145.163 2.52796 144.083 2.90742 143.038C3.08891 142.532 3.64161 142.266 4.12832 142.463C4.55728 142.643 4.80476 143.098 4.73051 143.552ZM2.38772 155.149C2.31348 155.637 1.89276 156.006 1.39781 155.971C0.878103 155.946 0.473889 155.474 0.498637 154.934C0.556382 153.82 0.663622 152.697 0.812108 151.592C0.812108 151.583 0.812108 151.574 0.812108 151.574C0.894601 151.043 1.36481 150.683 1.87626 150.752C2.39597 150.829 2.75894 151.326 2.68469 151.866C2.54446 152.92 2.44547 153.983 2.38772 155.046C2.39597 155.08 2.39597 155.114 2.38772 155.149Z" fill="#91B3FA"/>
<path opacity="0.3" d="M12.6741 130.506C12.6411 130.695 12.5586 130.883 12.4183 131.029C12.0801 131.398 11.7419 131.775 11.4119 132.16C11.0654 132.563 10.4632 132.606 10.0755 132.246C9.67953 131.886 9.64653 131.26 9.993 130.858C10.3395 130.455 10.6942 130.06 11.0489 129.675C11.4119 129.281 12.0141 129.272 12.3936 129.649C12.6328 129.872 12.7236 130.198 12.6741 130.506Z" fill="#91B3FA"/>
</g>
<g opacity="0.3">
<path opacity="0.3" d="M39.303 118.737C39.2288 119.208 38.841 119.568 38.3626 119.568C37.8759 119.568 37.3727 119.577 36.886 119.602C36.358 119.628 35.9208 119.199 35.8961 118.66C35.8713 118.111 36.2838 117.657 36.8035 117.631C37.3232 117.605 37.8429 117.597 38.3626 117.597C38.8905 117.597 39.3113 118.042 39.3113 118.582C39.3195 118.634 39.3113 118.685 39.303 118.737Z" fill="#91B3FA"/>
<path opacity="0.3" d="M75.8065 163.221C75.7405 163.667 75.6581 164.121 75.5756 164.567C75.4766 165.098 74.9734 165.45 74.4619 165.347C73.9505 165.244 73.6122 164.721 73.7112 164.19C73.9092 163.152 74.0577 162.115 74.1732 161.078C74.2309 160.538 74.7011 160.144 75.2208 160.204C75.7405 160.264 76.12 160.753 76.0623 161.293C75.988 161.935 75.9055 162.578 75.8065 163.221ZM74.2804 169.589C74.2722 169.641 74.2557 169.701 74.2392 169.752C73.901 170.789 73.505 171.835 73.0843 172.838C72.8781 173.335 72.3171 173.566 71.8304 173.344C71.3519 173.121 71.1292 172.538 71.3437 172.041C71.7479 171.089 72.1191 170.104 72.4408 169.109C72.6141 168.595 73.1503 168.321 73.6452 168.492C74.0907 168.664 74.3464 169.127 74.2804 169.589ZM76.2603 156.107C76.186 156.57 75.8148 156.921 75.3446 156.938C74.8166 156.956 74.3877 156.527 74.3712 155.978C74.3464 154.933 74.2722 153.878 74.1649 152.841C74.1072 152.301 74.4784 151.813 75.0064 151.753C75.5261 151.693 75.9963 152.079 76.054 152.627C76.1695 153.724 76.2437 154.83 76.2685 155.927C76.2767 155.987 76.2685 156.047 76.2603 156.107ZM70.8157 177.243C70.7992 177.363 70.758 177.492 70.6838 177.603C70.1311 178.538 69.5289 179.463 68.9019 180.346C68.5884 180.783 67.9945 180.878 67.5738 180.552C67.1531 180.226 67.0623 179.609 67.3758 179.172C67.9698 178.332 68.5389 177.458 69.0669 176.566C69.3391 176.104 69.9248 175.958 70.3703 176.241C70.7085 176.463 70.8735 176.866 70.8157 177.243ZM75.1466 147.742C75.0889 148.119 74.8249 148.444 74.4454 148.539C73.934 148.676 73.4225 148.35 73.2905 147.827C73.043 146.816 72.7543 145.804 72.4243 144.819C72.2511 144.304 72.5151 143.739 73.01 143.567C73.505 143.387 74.0495 143.662 74.2144 144.176C74.5609 145.213 74.8661 146.284 75.1301 147.347C75.1631 147.476 75.1713 147.613 75.1466 147.742ZM72.2924 139.822C72.2429 140.122 72.0696 140.396 71.7809 140.542C71.3107 140.79 70.7415 140.593 70.5023 140.105C70.0486 139.17 69.5536 138.253 69.0257 137.362C68.7534 136.899 68.8854 136.29 69.3391 136.008C69.7846 135.725 70.3703 135.87 70.6425 136.333C71.1952 137.268 71.7232 138.236 72.1934 139.222C72.3006 139.419 72.3254 139.625 72.2924 139.822ZM67.846 132.742C67.813 132.973 67.6975 133.188 67.5078 133.351C67.1036 133.693 66.5014 133.633 66.1714 133.213C65.5362 132.408 64.8515 131.619 64.1503 130.873C63.7874 130.479 63.7956 129.862 64.1668 129.476C64.5463 129.099 65.1403 129.108 65.5115 129.493C66.2457 130.282 66.9633 131.113 67.6315 131.962C67.8213 132.193 67.8873 132.476 67.846 132.742ZM62.022 126.845C61.9973 127.008 61.9313 127.162 61.8323 127.291C61.5106 127.719 60.9166 127.796 60.5042 127.462C59.7122 126.819 58.8791 126.202 58.0459 125.636C57.6087 125.336 57.4849 124.728 57.7654 124.274C58.0541 123.819 58.6398 123.691 59.0771 123.982C59.9597 124.582 60.8341 125.234 61.6673 125.902C61.956 126.134 62.0798 126.502 62.022 126.845ZM55.0927 122.414C55.0762 122.499 55.0514 122.594 55.0102 122.679C54.7874 123.168 54.2182 123.382 53.748 123.151C52.8406 122.705 51.9002 122.294 50.9598 121.934C50.4648 121.745 50.2174 121.171 50.3988 120.665C50.5803 120.151 51.1248 119.894 51.6197 120.082C52.6096 120.468 53.5995 120.897 54.5565 121.368C54.9442 121.557 55.1504 121.985 55.0927 122.414ZM47.3961 119.671C47.3961 119.688 47.3879 119.714 47.3879 119.731C47.2724 120.262 46.7692 120.597 46.2577 120.477C45.5318 120.305 44.7976 120.159 44.0717 120.039C43.8077 119.997 43.5437 119.954 43.2797 119.919C42.76 119.842 42.3971 119.345 42.4713 118.805C42.5373 118.257 43.024 117.888 43.5437 117.965C43.8242 118.008 44.0964 118.051 44.3769 118.094C45.1441 118.222 45.9195 118.377 46.6784 118.557C47.1569 118.668 47.4703 119.165 47.3961 119.671Z" fill="#91B3FA"/>
<path opacity="0.3" d="M65.7998 183.938C65.7668 184.135 65.6843 184.315 65.5441 184.47C65.1894 184.855 64.8099 185.232 64.4387 185.601C64.0592 185.978 63.457 185.961 63.0941 185.558C62.7311 185.164 62.7476 184.538 63.1353 184.161C63.49 183.81 63.8448 183.45 64.1912 183.081C64.5542 182.687 65.1564 182.687 65.5358 183.064C65.7503 183.304 65.8493 183.63 65.7998 183.938Z" fill="#91B3FA"/>
</g>
<path d="M55.1345 180.8C55.2995 180.706 55.382 180.509 55.349 180.312L54.3178 174.809C56.1574 173.017 57.733 170.9 58.9539 168.526L64.3324 168.123C64.5221 168.106 64.6789 167.969 64.7284 167.78L66.3947 161.275C66.4442 161.086 66.37 160.881 66.2132 160.778L61.7339 157.649C61.8164 154.958 61.4617 152.31 60.7275 149.798L64.2664 145.555C64.3901 145.41 64.4067 145.195 64.3159 145.024L61.074 139.204C60.975 139.033 60.7935 138.947 60.6037 138.981L55.3077 140.053C53.5836 138.141 51.5461 136.504 49.261 135.236L48.8733 129.647C48.8568 129.45 48.7248 129.287 48.5433 129.236L42.2822 127.505C42.1007 127.453 41.9027 127.53 41.8037 127.693L38.7927 132.347C36.2025 132.262 33.6534 132.63 31.2364 133.393L27.153 129.716C27.0128 129.587 26.8065 129.57 26.6416 129.664L21.0403 133.033C20.8753 133.127 20.7928 133.324 20.8258 133.522L21.857 139.024C20.0174 140.816 18.4418 142.933 17.2209 145.307L11.8424 145.71C11.6527 145.727 11.4959 145.864 11.4464 146.053L9.78009 152.558C9.73059 152.747 9.80484 152.952 9.96157 153.055L14.4409 156.184C14.3584 158.875 14.7131 161.524 15.4473 164.035L11.9084 168.278C11.7847 168.423 11.7682 168.638 11.8589 168.809L15.1009 174.629C15.1916 174.8 15.3813 174.886 15.5711 174.852L20.8671 173.78C22.5912 175.692 24.6287 177.329 26.9138 178.597L27.3015 184.186C27.318 184.383 27.45 184.546 27.6315 184.597L33.8927 186.328C34.0741 186.38 34.2721 186.303 34.3711 186.14L37.3821 181.486C39.9724 181.571 42.5214 181.203 44.9384 180.44L49.0218 184.117C49.162 184.246 49.3683 184.263 49.5332 184.169L55.1345 180.8Z" fill="#91B3FA"/>
<path d="M44.5083 158.001C44.0051 161.258 41.2581 163.727 37.9913 163.684C34.4029 163.632 31.5239 160.555 31.5651 156.827C31.5899 155.018 32.2911 153.33 33.5367 152.07C34.7824 150.81 36.424 150.133 38.1646 150.15C41.753 150.201 44.632 153.278 44.5908 157.007C44.5908 157.341 44.5578 157.675 44.5083 158.001ZM33.1572 156.081C33.116 156.33 33.0995 156.587 33.0913 156.844C33.0583 159.707 35.2608 162.064 38.0161 162.098C40.7714 162.132 43.0399 159.844 43.0729 156.981C43.1059 154.118 40.9033 151.761 38.1481 151.727C36.8117 151.71 35.5578 152.233 34.6009 153.193C33.8254 153.99 33.3305 154.992 33.1572 156.081Z" fill="#BDD0FB"/>
<path d="M53.8143 159.415C53.7235 159.973 53.6163 160.53 53.4678 161.087C53.4266 161.258 53.3771 161.438 53.3276 161.61C53.0801 162.467 52.7666 163.298 52.3954 164.087C52.3872 164.095 52.3872 164.112 52.3789 164.121C52.3624 164.155 52.3459 164.181 52.3377 164.215C52.3129 164.275 52.2799 164.335 52.2469 164.395C52.1727 164.55 52.0077 164.635 51.851 164.61C51.8097 164.601 51.7767 164.592 51.7355 164.567C51.5457 164.464 51.4797 164.232 51.5705 164.035C52.0654 163.041 52.4532 161.978 52.7336 160.89C54.1278 155.464 52.6264 149.936 49.2112 146.079C47.3139 143.936 44.8308 142.307 41.9271 141.502C41.4156 141.364 40.9042 141.244 40.3927 141.159C36.9363 140.584 33.4304 141.253 30.3616 143.096C26.8392 145.213 24.3149 148.633 23.2673 152.721C21.0977 161.164 25.9483 169.864 34.0738 172.109C34.577 172.247 35.0802 172.358 35.5917 172.444C37.7942 172.812 40.0545 172.675 42.1993 172.032C42.2571 172.015 42.3148 172.015 42.3643 172.024C42.5046 172.049 42.6283 172.152 42.6695 172.307C42.7273 172.512 42.6118 172.735 42.4056 172.795C40.1535 173.464 37.786 173.609 35.4679 173.224C34.9317 173.138 34.4038 173.018 33.8758 172.872C25.3461 170.507 20.2646 161.37 22.5331 152.516C23.6385 148.221 26.2783 144.63 29.9822 142.41C33.2076 140.473 36.8868 139.77 40.5165 140.379C41.0527 140.473 41.5971 140.584 42.1251 140.739C46.258 141.887 49.7144 144.63 51.851 148.479C53.7235 151.813 54.4 155.644 53.8143 159.415Z" fill="#BDD0FB"/>
<g opacity="0.3">
<path opacity="0.3" d="M56.852 232.863C56.8108 233.12 56.6128 233.334 56.3488 233.369C55.8538 233.437 55.3506 233.48 54.8557 233.514C54.534 233.54 54.2535 233.283 54.2288 232.948C54.204 232.614 54.4515 232.323 54.7732 232.297C55.2434 232.263 55.7219 232.22 56.2003 232.151C56.522 232.108 56.8108 232.348 56.852 232.683C56.8603 232.751 56.8603 232.811 56.852 232.863Z" fill="#91B3FA"/>
<path opacity="0.3" d="M52.3469 233.026C52.2974 233.334 52.0335 233.557 51.7365 233.54C50.8786 233.488 50.0206 233.394 49.171 233.248C48.9895 233.223 48.8162 233.188 48.6348 233.154C48.313 233.094 48.1233 232.76 48.1646 232.443C48.2223 232.108 48.5275 231.894 48.8492 231.954C49.0225 231.988 49.1875 232.014 49.3607 232.048C50.1691 232.186 50.994 232.28 51.8025 232.323C52.1242 232.34 52.3717 232.631 52.3552 232.966C52.3469 232.983 52.3469 233 52.3469 233.026ZM46.358 231.886C46.3497 231.911 46.3497 231.946 46.3415 231.971C46.2425 232.288 45.9125 232.468 45.6073 232.374C44.6174 232.048 43.6357 231.663 42.6953 231.217C42.3983 231.08 42.2746 230.72 42.4066 230.411C42.5386 230.103 42.885 229.966 43.182 230.111C44.0812 230.531 45.0216 230.908 45.962 231.208C46.2342 231.303 46.3992 231.594 46.358 231.886ZM40.8145 229.271C40.8062 229.348 40.7732 229.426 40.732 229.494C40.5587 229.777 40.204 229.871 39.9235 229.691C39.0409 229.126 38.183 228.5 37.3663 227.823C37.1106 227.609 37.0693 227.231 37.2755 226.966C37.4735 226.7 37.8447 226.657 38.1005 226.871C38.8759 227.514 39.6926 228.114 40.534 228.646C40.7485 228.791 40.8475 229.04 40.8145 229.271ZM36.0546 225.329C36.0382 225.457 35.9804 225.569 35.8897 225.671C35.6587 225.903 35.2875 225.903 35.0565 225.663C34.3306 224.891 33.6459 224.06 33.0189 223.203C32.8209 222.937 32.8704 222.551 33.1344 222.346C33.3901 222.14 33.7614 222.191 33.9593 222.466C34.5533 223.28 35.2132 224.069 35.9062 224.806C36.0299 224.943 36.0876 225.14 36.0546 225.329ZM32.3755 220.289C32.3507 220.46 32.2517 220.623 32.095 220.717C31.8145 220.889 31.4598 220.786 31.2948 220.494C30.7751 219.56 30.3049 218.592 29.8925 217.597C29.7605 217.289 29.9007 216.929 30.1977 216.8C30.4947 216.672 30.8411 216.809 30.9649 217.117C31.3526 218.06 31.8063 218.994 32.3012 219.877C32.3755 220.014 32.392 220.152 32.3755 220.289ZM29.975 214.477C29.942 214.7 29.7852 214.897 29.5625 214.966C29.249 215.06 28.9273 214.872 28.8366 214.546C28.5478 213.509 28.3169 212.446 28.1601 211.383C28.1106 211.049 28.3251 210.74 28.6468 210.689C28.9685 210.637 29.2655 210.86 29.315 211.195C29.4717 212.206 29.6862 213.226 29.9585 214.212C29.9832 214.297 29.9914 214.392 29.975 214.477ZM29.0263 208.238C28.985 208.52 28.7541 208.743 28.4653 208.752C28.1436 208.76 27.8714 208.503 27.8631 208.16C27.8301 207.089 27.8549 205.992 27.9539 204.92C27.9869 204.586 28.2674 204.338 28.5891 204.372C28.9108 204.406 29.15 204.698 29.117 205.032C29.0263 206.06 29.0015 207.098 29.0345 208.126C29.0345 208.16 29.0263 208.195 29.0263 208.238ZM30.3957 198.886C30.3874 198.921 30.3792 198.955 30.3709 198.989C30.0904 199.829 29.8512 200.695 29.6532 201.569C29.6202 201.698 29.5955 201.835 29.5707 201.963C29.5047 202.289 29.1913 202.503 28.8778 202.435C28.5643 202.366 28.3498 202.04 28.4241 201.715C28.4571 201.578 28.4818 201.441 28.5148 201.295C28.7211 200.378 28.9768 199.469 29.2655 198.586C29.3728 198.269 29.7027 198.098 30.0079 198.209C30.2802 198.312 30.4452 198.603 30.3957 198.886Z" fill="#91B3FA"/>
</g>
<g opacity="0.3">
<path opacity="0.3" d="M78.2253 211.091C78.1758 211.417 77.8789 211.648 77.5571 211.597C77.2354 211.545 77.0127 211.237 77.0622 210.902C77.2024 209.9 77.2932 208.88 77.3179 207.868C77.3262 207.534 77.5984 207.268 77.9201 207.277C78.2418 207.285 78.4976 207.568 78.4893 207.903C78.4646 208.965 78.3738 210.037 78.2253 211.091ZM77.6066 214.142C77.6066 214.168 77.5984 214.185 77.5901 214.211C77.3179 215.231 76.9879 216.251 76.6085 217.228C76.4847 217.537 76.1465 217.691 75.8413 217.562C75.5443 217.434 75.3958 217.082 75.5196 216.765C75.8908 215.831 76.2043 214.862 76.46 213.885C76.5425 213.56 76.8642 213.371 77.1777 213.457C77.4746 213.542 77.6561 213.842 77.6066 214.142ZM78.3738 204.877C78.3326 205.143 78.1263 205.357 77.8541 205.383C77.5324 205.417 77.2437 205.168 77.2107 204.834C77.1117 203.823 76.9632 202.811 76.7487 201.826C76.6827 201.5 76.8807 201.174 77.1942 201.097C77.5076 201.02 77.8211 201.234 77.8954 201.56C78.1181 202.597 78.2748 203.651 78.3738 204.714C78.3821 204.774 78.3821 204.825 78.3738 204.877ZM75.3463 219.911C75.3381 219.979 75.3133 220.048 75.2803 220.108C74.7854 221.034 74.2244 221.942 73.6223 222.791C73.4325 223.065 73.0613 223.125 72.8056 222.919C72.5416 222.722 72.4921 222.336 72.6818 222.071C73.2593 221.256 73.7872 220.391 74.2657 219.508C74.4224 219.217 74.7771 219.105 75.0659 219.277C75.2721 219.405 75.3793 219.662 75.3463 219.911ZM77.0787 198.808C77.0457 199.023 76.9055 199.211 76.6992 199.288C76.394 199.4 76.0558 199.237 75.9485 198.92C75.6268 197.969 75.2391 197.026 74.8101 196.117C74.6617 195.817 74.7854 195.449 75.0741 195.303C75.3628 195.157 75.7176 195.277 75.8578 195.577C76.3115 196.529 76.7157 197.514 77.0539 198.517C77.0869 198.603 77.0869 198.706 77.0787 198.808ZM74.4142 193.237C74.3894 193.4 74.2987 193.554 74.1585 193.649C73.8862 193.837 73.5233 193.751 73.35 193.477C72.8138 192.629 72.2199 191.814 71.5929 191.043C71.3867 190.786 71.4115 190.4 71.6589 190.186C71.9064 189.972 72.2776 189.997 72.4839 190.254C73.1438 191.06 73.7625 191.926 74.3234 192.809C74.4059 192.937 74.4389 193.091 74.4142 193.237ZM70.5453 188.489C70.5288 188.6 70.4793 188.712 70.3968 188.806C70.1741 189.054 69.8029 189.072 69.5719 188.84C68.8542 188.154 68.0953 187.503 67.3033 186.912C67.0394 186.714 66.9816 186.337 67.1714 186.063C67.3611 185.789 67.7241 185.729 67.988 185.926C68.813 186.543 69.6131 187.229 70.3638 187.949C70.5123 188.086 70.57 188.292 70.5453 188.489Z" fill="#91B3FA"/>
<path opacity="0.3" d="M71.7904 224.95C71.7739 225.07 71.7244 225.181 71.642 225.267C71.2955 225.644 70.9408 226.021 70.5861 226.373C70.3469 226.604 69.9757 226.596 69.7612 226.347C69.5385 226.099 69.5467 225.721 69.7859 225.49C70.1241 225.156 70.4706 224.804 70.7923 224.436C71.015 224.187 71.3862 224.179 71.6172 224.41C71.7574 224.556 71.8152 224.753 71.7904 224.95Z" fill="#91B3FA"/>
</g>
<path d="M64.3915 223.202C64.4987 223.133 64.5565 223.005 64.5317 222.876L63.8388 219.191C65.0679 217.991 66.1238 216.577 66.9405 214.982L70.5455 214.717C70.6692 214.708 70.7764 214.614 70.8094 214.485L71.9231 210.131C71.9561 210.002 71.9066 209.865 71.7994 209.797L68.8049 207.697C68.8544 205.897 68.6234 204.123 68.1284 202.443L70.496 199.606C70.5785 199.503 70.595 199.366 70.529 199.246L68.3594 195.346C68.2934 195.234 68.1697 195.174 68.0459 195.2L64.4987 195.92C63.3438 194.643 61.9827 193.546 60.4484 192.697L60.1926 188.952C60.1844 188.823 60.0936 188.712 59.9699 188.677L55.7793 187.52C55.6555 187.486 55.5235 187.537 55.4575 187.649L53.4365 190.76C51.7041 190.709 49.9965 190.949 48.3797 191.463L45.6492 189.003C45.5502 188.917 45.4182 188.9 45.3027 188.969L41.5493 191.223C41.442 191.292 41.3843 191.42 41.409 191.549L42.102 195.234C40.8728 196.434 39.8169 197.849 39.0002 199.443L35.3953 199.708C35.2716 199.717 35.1643 199.811 35.1313 199.94L34.0177 204.294C33.9847 204.423 34.0342 204.56 34.1414 204.628L37.1359 206.728C37.0864 208.528 37.3174 210.302 37.8123 211.982L35.4448 214.819C35.3623 214.922 35.3458 215.059 35.4118 215.179L37.5814 219.079C37.6474 219.191 37.7711 219.251 37.8948 219.225L41.442 218.505C42.5969 219.782 43.958 220.879 45.4924 221.728L45.7481 225.473C45.7564 225.602 45.8471 225.713 45.9709 225.748L50.1615 226.905C50.2852 226.939 50.4172 226.888 50.4832 226.776L52.5043 223.665C54.2366 223.716 55.9442 223.476 57.5611 222.962L60.2916 225.422C60.3906 225.508 60.5226 225.525 60.6381 225.456L64.3915 223.202Z" fill="#91B3FA"/>
<path d="M57.355 207.954C57.2065 208.922 56.7611 209.814 56.0681 210.516C55.2185 211.374 54.0966 211.836 52.9169 211.819C50.4752 211.785 48.5118 209.694 48.5448 207.148C48.5861 204.602 50.5906 202.571 53.0407 202.605C54.2285 202.623 55.3339 203.12 56.1589 204.002C56.9838 204.885 57.4292 206.051 57.4127 207.277C57.4127 207.508 57.3962 207.731 57.355 207.954ZM49.7575 206.677C49.7327 206.84 49.7162 207.002 49.7162 207.174C49.6915 209.042 51.1351 210.585 52.9334 210.611C53.8078 210.619 54.6245 210.285 55.2515 209.651C55.8784 209.017 56.2249 208.177 56.2414 207.268C56.2496 206.36 55.9279 205.511 55.3174 204.86C54.707 204.208 53.8986 203.848 53.0242 203.831C51.3908 203.805 50.0132 205.04 49.7575 206.677Z" fill="#BDD0FB"/>
<path d="M63.8312 208.956C63.7735 209.333 63.691 209.719 63.6003 210.096C63.4105 210.851 63.1383 211.588 62.8001 212.282C62.7836 212.316 62.7671 212.342 62.7506 212.376C62.6351 212.616 62.3794 212.745 62.1401 212.702C62.0824 212.693 62.0247 212.676 61.9669 212.642C61.6782 212.488 61.5627 212.119 61.7112 211.819C62.0329 211.168 62.2804 210.482 62.4619 209.779C62.4701 209.736 62.4784 209.702 62.4949 209.659C62.9073 207.988 62.9073 206.265 62.5114 204.636C62.2969 203.754 61.9669 202.888 61.5214 202.074C61.5214 202.065 61.5132 202.056 61.5132 202.056C61.5049 202.039 61.4884 202.014 61.4802 201.996C60.1603 199.622 58.032 197.934 55.483 197.222C55.153 197.128 54.823 197.059 54.493 196.999C52.2575 196.622 49.9807 197.059 48.0009 198.251C45.7158 199.622 44.0907 201.834 43.406 204.482C42.7296 207.131 43.076 209.891 44.4042 212.265C45.724 214.639 47.8524 216.328 50.4014 217.039C50.7231 217.133 51.0531 217.202 51.3831 217.253C52.8102 217.493 54.2703 217.408 55.6562 216.988C55.7387 216.962 55.8294 216.962 55.9119 216.97C56.1264 217.005 56.3161 217.168 56.3821 217.408C56.4729 217.733 56.2914 218.068 55.9779 218.162C54.4188 218.625 52.7854 218.728 51.1933 218.462C50.8221 218.402 50.4591 218.316 50.0962 218.222C47.2419 217.433 44.8661 215.539 43.3812 212.882C41.9046 210.233 41.5087 207.139 42.2676 204.174C43.0265 201.208 44.8496 198.739 47.4069 197.196C49.626 195.859 52.175 195.379 54.6745 195.791C55.0457 195.851 55.417 195.936 55.7882 196.039C61.2905 197.582 64.7222 203.214 63.8312 208.956Z" fill="#BDD0FB"/>
<path d="M79.5997 11.8882C78.8408 49.0358 76.3825 177.184 77.5539 222.594C77.6776 227.402 80.8536 231.268 84.805 231.422C104.381 232.202 176.141 234.173 208.156 232.545C214.822 232.202 220.126 225.637 220.266 217.528C220.934 178.538 222.403 68.8609 218.913 18.6166C218.493 12.5997 214.607 7.79979 209.666 7.19981C188.35 4.61131 116.276 -1.73137 88.6162 0.454281C83.6336 0.848556 79.7234 5.81128 79.5997 11.8882Z" fill="url(#paint1_linear)"/>
<path d="M88.3366 23.2884C87.2807 53.2704 83.9562 153.031 85.0121 189.912C85.1689 195.304 88.6583 199.666 93.0964 199.975C111.336 201.269 173.576 204.132 200.337 201.526C205.154 201.055 208.933 196.324 209.197 190.452C210.549 159.862 214.443 66.9758 213.437 30.4968C213.272 24.677 209.568 19.9285 204.8 19.4057C185.067 17.2543 118.925 12.1287 96.1899 13.6373C91.9168 13.9373 88.5181 18.0943 88.3366 23.2884Z" fill="#91B3FA"/>
<path opacity="0.33" d="M93.4425 29.1934C92.4774 57.0841 89.4416 149.884 90.4068 184.195C90.547 189.209 93.7478 193.263 97.7982 193.555C114.486 194.763 171.406 197.42 195.882 195.003C200.287 194.566 203.743 190.16 203.983 184.7C205.22 156.244 208.784 69.838 207.86 35.9132C207.711 30.5048 204.321 26.0821 199.957 25.5935C181.908 23.5879 121.416 18.8223 100.619 20.228C96.7175 20.4937 93.6158 24.3678 93.4425 29.1934Z" fill="white"/>
<path opacity="0.66" d="M127.983 6.94214C127.983 8.08211 128.717 9.02494 129.649 9.08494C134.269 9.37636 147.294 10.2078 153.118 10.6192C154.265 10.6963 155.164 9.44493 154.949 8.07354L154.916 7.84211C154.768 6.90785 154.133 6.20501 153.349 6.11073C149.414 5.6736 137.544 4.45649 129.674 4.79934C128.725 4.8422 127.983 5.7936 127.983 6.94214Z" fill="url(#paint2_linear)"/>
<path opacity="0.54" d="M178.073 166.701H121.326C120.748 166.701 120.278 166.213 120.278 165.613V149.662C120.278 149.062 120.748 148.573 121.326 148.573H178.073C178.65 148.573 179.12 149.062 179.12 149.662V165.613C179.128 166.213 178.658 166.701 178.073 166.701Z" fill="white"/>
<path opacity="0.54" d="M178.345 180.406H121.598C121.021 180.406 120.551 179.918 120.551 179.318V172.435C120.551 171.835 121.021 171.347 121.598 171.347H178.345C178.923 171.347 179.393 171.835 179.393 172.435V179.318C179.401 179.918 178.931 180.406 178.345 180.406Z" fill="white"/>
<path d="M125.788 59.4066H15.8254C14.8768 59.4066 14.1013 58.6094 14.1013 57.6152V1.86818C14.1013 0.882489 14.8685 0.0767975 15.8254 0.0767975H125.788C126.737 0.0767975 127.512 0.873918 127.512 1.86818V57.6152C127.512 58.6009 126.745 59.4066 125.788 59.4066Z" fill="#7D97F4"/>
<path opacity="0.41" d="M122.323 58.3786H18.2258C17.2771 58.3786 16.5017 57.5814 16.5017 56.5872V9.21423C16.5017 8.22855 17.2689 7.42285 18.2258 7.42285H122.323C123.272 7.42285 124.047 8.21997 124.047 9.21423V56.5958C124.047 57.5815 123.28 58.3786 122.323 58.3786Z" fill="white"/>
<g opacity="0.67">
<path opacity="0.67" d="M26.5246 16.9883H20.0242V55.953H26.5246V16.9883Z" fill="white"/>
</g>
<g opacity="0.67">
<path opacity="0.67" d="M35.2534 16.9883H28.7529V55.953H35.2534V16.9883Z" fill="white"/>
</g>
<g opacity="0.67">
<path opacity="0.67" d="M43.7985 16.9883H37.2981V55.953H43.7985V16.9883Z" fill="white"/>
</g>
<g opacity="0.67">
<path opacity="0.67" d="M52.5253 16.9883H46.0249V55.953H52.5253V16.9883Z" fill="white"/>
</g>
<g opacity="0.67">
<path opacity="0.67" d="M60.8173 16.9883H54.3169V55.953H60.8173V16.9883Z" fill="white"/>
</g>
<g opacity="0.67">
<path opacity="0.67" d="M69.5451 16.9883H63.0447V55.953H69.5451V16.9883Z" fill="white"/>
</g>
<g opacity="0.67">
<path opacity="0.67" d="M78.092 16.9883H71.5916V55.953H78.092V16.9883Z" fill="white"/>
</g>
<g opacity="0.67">
<path opacity="0.67" d="M86.8178 16.9883H80.3174V55.953H86.8178V16.9883Z" fill="white"/>
</g>
<g opacity="0.67">
<path opacity="0.67" d="M95.5214 16.9883H89.021V55.953H95.5214V16.9883Z" fill="white"/>
</g>
<g opacity="0.67">
<path opacity="0.67" d="M104.249 16.9883H97.7488V55.953H104.249V16.9883Z" fill="white"/>
</g>
<g opacity="0.67">
<path opacity="0.67" d="M112.796 16.9883H106.296V55.953H112.796V16.9883Z" fill="white"/>
</g>
<g opacity="0.67">
<path opacity="0.67" d="M121.523 16.9883H115.023V55.953H121.523V16.9883Z" fill="white"/>
</g>
<path d="M127.545 12.4797V3.7199C127.545 1.67138 125.92 0 123.948 0H17.6812C15.7096 0 14.134 1.67138 14.134 3.7199V12.4797H127.545Z" fill="#7D97F4"/>
<path d="M26.5661 37.1382H20.0657V55.952H26.5661V37.1382Z" fill="#7D97F4"/>
<path d="M35.2953 31.3872H28.7949V55.9523H35.2953V31.3872Z" fill="#7D97F4"/>
<path d="M43.8405 41.7236H37.3401V55.9519H43.8405V41.7236Z" fill="#7D97F4"/>
<path d="M52.5673 26.2275H46.0669V55.9524H52.5673V26.2275Z" fill="#7D97F4"/>
<path d="M60.8583 21.2559H54.3579V55.952H60.8583V21.2559Z" fill="#7D97F4"/>
<path d="M69.5871 45.376H63.0867V55.9528H69.5871V45.376Z" fill="#7D97F4"/>
<path d="M78.1342 34.8154H71.6338V55.9521H78.1342V34.8154Z" fill="#7D97F4"/>
<path d="M86.86 31.3872H80.3596V55.9523H86.86V31.3872Z" fill="#7D97F4"/>
<path d="M95.5558 36.4697H89.0554V55.9521H95.5558V36.4697Z" fill="#7D97F4"/>
<path d="M104.283 23.5615H97.7822V55.952H104.283V23.5615Z" fill="#7D97F4"/>
<path d="M112.83 26.2275H106.329V55.9524H112.83V26.2275Z" fill="#7D97F4"/>
<path d="M121.565 29.9639H115.065V55.9517H121.565V29.9639Z" fill="#7D97F4"/>
<path d="M73.6452 232.279C70.4115 232.57 64.802 233.042 60.3721 233.247C57.7159 233.367 56.1815 233.102 55.2988 232.733C55.2988 232.836 55.3071 232.93 55.3071 233.024C55.3318 233.504 55.703 233.899 56.1732 233.924C64.5298 234.413 71.1787 234.096 73.5462 233.942C74.0329 233.907 74.3299 233.359 74.0742 232.922C73.9669 232.699 73.8102 232.493 73.6452 232.279Z" fill="#7D97F4"/>
<path d="M60.3804 233.248C64.802 233.043 70.4198 232.571 73.6535 232.28C70.4775 228.225 60.3804 225.491 60.3804 225.491H57.5261C55.5628 228.431 55.2823 231.225 55.3071 232.725C56.1898 233.094 57.7159 233.368 60.3804 233.248Z" fill="url(#paint3_linear)"/>
<path d="M57.0486 220.665L57.3126 226.151C57.3373 226.742 57.7663 227.248 58.3437 227.325C58.9129 227.411 59.6719 227.419 60.4885 227.137C60.9835 226.965 61.3547 226.528 61.4454 225.997L62.3694 220.657H57.0486V220.665Z" fill="url(#paint4_linear)"/>
<path d="M23.9687 238.605C22.5663 238.34 21.9311 237.362 21.6671 236.317C21.6671 236.325 21.6671 236.334 21.6589 236.342C21.4527 237.448 21.9311 238.588 22.888 239.137C24.0429 239.797 25.3051 239.908 26.2867 239.848C27.3426 239.788 28.3078 239.205 28.8357 238.271L28.844 238.254C27.7881 238.965 26.3115 239.043 23.9687 238.605Z" fill="#7D97F4"/>
<path d="M30.5845 222.354H28.2334C24.6532 222.26 22.4012 232.399 21.667 236.325C21.931 237.371 22.5662 238.348 23.9685 238.613C26.3031 239.051 27.788 238.965 28.8439 238.271C30.7742 234.851 31.7394 229.845 32.2013 226.922C32.7293 223.588 30.5845 222.354 30.5845 222.354Z" fill="url(#paint5_linear)"/>
<path d="M28.5295 217.262L27.2261 222.654C27.0694 223.314 27.3746 223.999 27.9603 224.316C28.6945 224.702 29.7174 225.114 30.6661 224.994C31.1115 224.942 31.4827 224.616 31.623 224.179L33.5368 218.505L28.5295 217.262Z" fill="url(#paint6_linear)"/>
<path d="M74.4466 146.225C74.4466 146.225 62.7822 221.977 62.9719 222.388C62.9719 222.388 59.7547 223.906 56.2405 222.586C56.2405 222.586 57.2964 182.095 59.7629 166.564C59.7629 166.564 39.8575 202.76 33.5386 220.794C33.5386 220.794 30.2389 220.383 27.5166 218.523C27.5166 218.523 48.9482 153.373 54.6649 144.699L74.4466 146.225Z" fill="url(#paint7_linear)"/>
<path d="M60.2327 166.298C60.1503 166.298 60.0595 166.273 59.9853 166.221C59.7625 166.075 59.6965 165.775 59.8368 165.553L64.1923 158.319C64.2583 158.207 64.3738 158.13 64.4976 158.096L67.7065 157.427C67.9622 157.376 68.2097 157.547 68.2592 157.804C68.3087 158.07 68.1437 158.327 67.8962 158.379L64.8853 159.004L60.6369 166.058C60.538 166.221 60.3895 166.298 60.2327 166.298Z" fill="url(#paint8_linear)"/>
<path d="M127.966 72.0493C127.966 72.0493 120.096 73.8493 115.312 76.1463C114.363 76.6006 113.604 77.3977 113.167 78.3834C111.732 81.6405 107.45 89.8088 99.1433 93.7087C100.339 95.3544 102.27 98.7914 103.103 104.56C108.094 100.703 112.4 94.2573 114.47 83.689C114.47 83.689 116.046 84.5804 118.009 83.5861C119.049 83.0633 120.245 82.3176 121.144 81.7348C122.043 81.1519 122.712 80.2519 122.967 79.1891C123.305 77.792 123.107 76.5663 123.107 75.2464L127.15 73.9435C127.158 73.9607 128.371 73.4807 127.966 72.0493Z" fill="url(#paint9_linear)"/>
<path d="M103.112 104.56C102.27 98.7913 100.348 95.3628 99.1522 93.7086C93.9881 96.1342 87.2815 96.9056 78.7353 93.8286C77.9433 93.5457 77.1266 93.3829 76.2935 93.3315C71.7399 93.0572 56.751 92.5515 44.3441 96.8114C41.729 97.7113 39.6172 99.717 38.5283 102.314C35.1709 110.319 29.7346 128.542 44.8225 137.747C45.9857 134.756 47.322 132.356 48.4604 130.59C46.0269 126.33 45.3092 120.519 49.6236 112.942C52.7666 121.762 54.2432 134.627 54.5484 140.327C54.6474 142.204 54.3339 144.073 53.6245 145.804L53.5502 145.993C53.4018 146.361 53.608 146.79 53.9875 146.875C62.4842 148.855 71.3109 148.315 73.9507 148.093C74.4209 148.05 74.8169 147.698 74.9241 147.227C79.057 129.15 79.0652 116.816 78.0506 109.017C81.903 109.917 93.7159 111.828 103.112 104.56Z" fill="#3040C2"/>
<path d="M78.0599 109.634C77.8289 109.634 77.6309 109.454 77.5979 109.214C76.6245 101.603 74.6694 98.3288 74.6529 98.3031C74.5127 98.0717 74.5787 97.7717 74.8014 97.6346C75.0242 97.4889 75.3129 97.5574 75.4449 97.7889C75.5274 97.926 77.5319 101.277 78.5301 109.094C78.5631 109.36 78.3816 109.608 78.1259 109.643C78.1011 109.626 78.0764 109.634 78.0599 109.634Z" fill="#3040C2"/>
<path d="M57.0982 82.7969C57.0982 82.7969 56.2403 92.2337 55.4814 95.0279C55.3659 95.4479 55.5474 95.9022 55.9103 96.1165C57.1972 96.8793 60.2742 98.1221 64.4896 95.9793C65.1743 95.6279 65.5785 94.8908 65.5538 94.1108L65.1825 84.9911L57.0982 82.7969Z" fill="url(#paint10_linear)"/>
<path d="M65.3639 70.7295C65.3639 70.7295 68.1109 77.2865 68.2924 80.7321C68.4739 84.1778 69.1916 86.4063 65.3639 87.1005C61.5363 87.7948 58.3026 85.8149 56.5537 82.3778C56.5537 82.3778 53.815 77.0979 54.4254 74.9294C55.0441 72.7694 65.3639 70.7295 65.3639 70.7295Z" fill="url(#paint11_linear)"/>
<path d="M57.8651 79.9093L58.0796 79.8065C58.3601 79.6779 58.4756 79.335 58.3353 79.0522C57.7991 77.9636 56.7432 75.4866 58.1044 74.9037C59.8615 74.158 66.7991 72.6838 68.3005 70.1209C69.7441 67.661 68.4655 64.4811 66.5434 63.5811C66.4114 63.5211 66.2629 63.5725 66.1969 63.7011L66.0402 64.0182C65.9329 64.2325 65.6277 64.1982 65.5617 63.9668C65.4957 63.744 65.2153 63.7011 65.0915 63.8982C64.6296 64.6611 63.3839 65.9039 60.0594 66.5467C55.3326 67.4553 52.2061 69.4438 52.1319 72.8295C52.1236 73.0437 51.9091 73.1637 51.7276 73.0523C51.3812 72.8295 50.8202 72.7266 50.0778 73.378C48.7826 74.5094 49.3106 77.4494 52.1566 79.875C52.2886 79.9865 52.2886 80.2093 52.1484 80.3122C51.6287 80.6636 50.8615 81.495 52.8578 82.6007C54.9201 83.7492 56.4545 83.6549 57.0484 83.5521C57.1969 83.5264 57.2877 83.3807 57.2547 83.2264L56.6195 80.2436C56.5865 80.0722 56.7102 79.9179 56.8752 79.9179H57.8651V79.9093Z" fill="black"/>
<path d="M57.9891 80.5435C57.9891 80.5435 56.9414 76.3521 55.1347 77.5264C53.3281 78.7007 56.0752 82.2235 57.5271 82.3778L57.9891 80.5435Z" fill="url(#paint12_linear)"/>
<path d="M116.574 82.8488C116.467 82.8488 116.368 82.8145 116.277 82.7374C116.079 82.5659 116.046 82.2574 116.211 82.0517C116.508 81.666 119.164 78.2975 120.204 77.689C120.542 77.4918 120.74 77.2947 120.781 77.1233C120.79 77.0975 120.798 77.0547 120.773 76.9604L117.803 77.5775L116.071 79.1203C115.873 79.2918 115.576 79.2746 115.411 79.0689C115.246 78.8632 115.263 78.5546 115.461 78.3832L117.284 76.7547C117.341 76.7033 117.416 76.6604 117.498 76.6433L120.93 75.9319C121.111 75.889 121.301 75.9747 121.408 76.1376C121.68 76.549 121.771 76.9604 121.68 77.3461C121.573 77.8004 121.243 78.1947 120.649 78.5375C119.981 78.9318 118.01 81.2803 116.921 82.6688C116.838 82.7888 116.706 82.8488 116.574 82.8488Z" fill="url(#paint13_linear)"/>
<path d="M57.905 144.185L70.3036 143.902C70.3036 143.902 59.4888 140.722 58.8206 141.588C58.8206 141.588 52.1223 137.011 48.4431 130.574C47.2964 132.339 45.9601 134.739 44.8052 137.731C48.0966 139.753 52.4275 143.242 57.905 144.185Z" fill="url(#paint14_linear)"/>
<path d="M57.56 141.956C57.56 141.956 57.3042 147.09 63.7881 146.345C67.3106 145.942 73.0025 142.522 73.0025 142.522C73.0025 142.522 58.1704 142.487 57.56 141.956Z" fill="url(#paint15_linear)"/>
<path d="M60.1006 143.336C60.1253 143.336 60.1501 143.336 60.1748 143.336L91.0105 143.301C91.7695 143.301 92.3882 142.667 92.3882 141.879C92.3882 141.099 91.7695 140.447 91.0105 140.464L60.1748 140.499C59.4159 140.499 58.7972 141.133 58.7972 141.921C58.789 142.676 59.3664 143.293 60.1006 143.336Z" fill="url(#paint16_linear)"/>
<path d="M118.72 114.553H93.0396C91.1423 114.553 89.4182 115.676 88.6097 117.442L76.7473 143.318H108.655C109.876 143.318 110.973 142.555 111.419 141.381L120.625 117.433C121.161 116.053 120.163 114.553 118.72 114.553Z" fill="url(#paint17_linear)"/>
<path d="M100.629 127.822C100.076 129.596 100.48 131.327 101.545 131.679C102.609 132.03 103.92 130.873 104.481 129.099C105.034 127.325 104.63 125.593 103.566 125.242C102.502 124.891 101.182 126.048 100.629 127.822Z" fill="#7D97F4"/>
<path d="M143.235 130.869C152.749 130.869 160.462 122.932 160.462 113.141C160.462 103.35 152.749 95.4126 143.235 95.4126C133.72 95.4126 126.007 103.35 126.007 113.141C126.007 122.932 133.72 130.869 143.235 130.869Z" fill="url(#paint18_linear)"/>
<path d="M143.234 130.279C152.432 130.279 159.888 122.606 159.888 113.141C159.888 103.676 152.432 96.0024 143.234 96.0024C134.036 96.0024 126.579 103.676 126.579 113.141C126.579 122.606 134.036 130.279 143.234 130.279Z" fill="url(#paint19_linear)"/>
<path opacity="0.78" d="M153.566 123.775C159.071 118.109 159.071 108.924 153.566 103.258C148.061 97.5928 139.135 97.5928 133.629 103.258C128.124 108.924 128.124 118.109 133.629 123.775C139.135 129.44 148.061 129.44 153.566 123.775Z" fill="white"/>
<path d="M145.817 121.227H141.694V124.562H138.075V121.227H135.778V118.394H138.075V115.876H135.778V112.729H138.075V102.501H144.023C145.618 102.501 146.919 102.711 147.926 103.131C148.954 103.55 149.762 104.096 150.349 104.767C150.937 105.417 151.335 106.141 151.545 106.939C151.755 107.736 151.86 108.523 151.86 109.299C151.86 110.054 151.734 110.831 151.482 111.628C151.251 112.404 150.832 113.117 150.223 113.768C149.615 114.397 148.796 114.922 147.768 115.341C146.761 115.74 145.481 115.939 143.929 115.939H141.694V118.394H145.817V121.227ZM141.694 112.729H143.992C144.432 112.729 144.894 112.687 145.377 112.603C145.88 112.499 146.342 112.32 146.761 112.068C147.202 111.817 147.559 111.47 147.831 111.03C148.104 110.568 148.24 109.981 148.24 109.267C148.24 108.533 148.115 107.935 147.863 107.474C147.632 107.012 147.317 106.655 146.919 106.404C146.52 106.131 146.069 105.953 145.565 105.869C145.083 105.764 144.579 105.711 144.055 105.711H141.694V112.729Z" fill="#FF837B"/>
<path d="M166.203 112.682C179.188 112.682 189.714 101.849 189.714 88.4871C189.714 75.1248 179.188 64.2925 166.203 64.2925C153.218 64.2925 142.692 75.1248 142.692 88.4871C142.692 101.849 153.218 112.682 166.203 112.682Z" fill="url(#paint20_linear)"/>
<path d="M166.202 111.877C178.754 111.877 188.931 101.405 188.931 88.4872C188.931 75.5695 178.754 65.0977 166.202 65.0977C153.649 65.0977 143.473 75.5695 143.473 88.4872C143.473 101.405 153.649 111.877 166.202 111.877Z" fill="url(#paint21_linear)"/>
<path opacity="0.78" d="M180.303 103C187.816 95.268 187.816 82.732 180.303 75C172.789 67.268 160.607 67.268 153.094 75C145.58 82.732 145.58 95.268 153.094 103C160.607 110.732 172.789 110.732 180.303 103Z" fill="white"/>
<path d="M169.727 99.5796H164.101V104.132H159.162V99.5796H156.026V95.7141H159.162V92.2781H156.026V87.9831H159.162V74.0242H167.279C169.455 74.0242 171.231 74.3106 172.605 74.8832C174.008 75.4559 175.111 76.2004 175.912 77.1167C176.714 78.0043 177.258 78.9922 177.544 80.0802C177.831 81.1683 177.974 82.242 177.974 83.3015C177.974 84.3323 177.802 85.3917 177.459 86.4798C177.144 87.5392 176.571 88.5128 175.741 89.4004C174.91 90.2594 173.793 90.9753 172.39 91.5479C171.016 92.092 169.269 92.364 167.15 92.364H164.101V95.7141H169.727V99.5796ZM164.101 87.9831H167.236C167.838 87.9831 168.468 87.9258 169.126 87.8113C169.813 87.6681 170.443 87.4247 171.016 87.0811C171.617 86.7375 172.104 86.265 172.476 85.6637C172.849 85.0338 173.035 84.2321 173.035 83.2585C173.035 82.2564 172.863 81.4403 172.519 80.8104C172.204 80.1804 171.775 79.6937 171.231 79.3501C170.687 78.9778 170.071 78.7344 169.384 78.6199C168.725 78.4767 168.038 78.4052 167.322 78.4052H164.101V87.9831Z" fill="#FF837B"/>
<path d="M200.918 86.9081C219.236 86.9081 234.085 71.6268 234.085 52.7763C234.085 33.9259 219.236 18.6445 200.918 18.6445C182.6 18.6445 167.75 33.9259 167.75 52.7763C167.75 71.6268 182.6 86.9081 200.918 86.9081Z" fill="url(#paint22_linear)"/>
<path d="M200.916 85.7724C218.624 85.7724 232.98 70.9995 232.98 52.7763C232.98 34.5531 218.624 19.7803 200.916 19.7803C183.207 19.7803 168.852 34.5531 168.852 52.7763C168.852 70.9995 183.207 85.7724 200.916 85.7724Z" fill="url(#paint23_linear)"/>
<path opacity="0.78" d="M220.808 73.25C231.407 62.3424 231.407 44.6576 220.808 33.75C210.209 22.8424 193.024 22.8424 182.424 33.75C171.825 44.6576 171.825 62.3424 182.424 73.25C193.023 84.1576 210.209 84.1576 220.808 73.25Z" fill="white"/>
<path d="M205.889 68.5857H197.952V75.0083H190.984V68.5857H186.561V63.1326H190.984V58.2853H186.561V52.2263H190.984V32.5344H202.436C205.505 32.5344 208.01 32.9383 209.949 33.7462C211.928 34.554 213.483 35.6043 214.614 36.8969C215.745 38.1491 216.513 39.5427 216.917 41.0776C217.321 42.6126 217.523 44.1273 217.523 45.6219C217.523 47.0761 217.28 48.5706 216.795 50.1056C216.351 51.6002 215.543 52.9736 214.372 54.2258C213.2 55.4376 211.625 56.4474 209.646 57.2553C207.707 58.0228 205.243 58.4065 202.254 58.4065H197.952V63.1326H205.889V68.5857ZM197.952 52.2263H202.375C203.223 52.2263 204.112 52.1455 205.041 51.9839C206.01 51.7819 206.899 51.4386 207.707 50.9539C208.555 50.4691 209.242 49.8027 209.767 48.9544C210.292 48.0657 210.555 46.9347 210.555 45.5613C210.555 44.1475 210.312 42.9963 209.828 42.1077C209.383 41.219 208.777 40.5323 208.01 40.0476C207.242 39.5225 206.374 39.1791 205.404 39.0175C204.475 38.8156 203.506 38.7146 202.496 38.7146H197.952V52.2263Z" fill="#FF837B"/>
<defs>
<linearGradient id="paint0_linear" x1="259.716" y1="310.805" x2="44.6318" y2="53.7167" gradientUnits="userSpaceOnUse">
<stop stop-color="#DAE3FE"/>
<stop offset="1" stop-color="#E9EFFD"/>
</linearGradient>
<linearGradient id="paint1_linear" x1="77.2473" y1="116.588" x2="221.158" y2="116.588" gradientUnits="userSpaceOnUse">
<stop stop-color="#09005D"/>
<stop offset="1" stop-color="#1A0F91"/>
</linearGradient>
<linearGradient id="paint2_linear" x1="127.98" y1="7.68437" x2="154.979" y2="7.68437" gradientUnits="userSpaceOnUse">
<stop stop-color="#4F52FF"/>
<stop offset="1" stop-color="#4042E2"/>
</linearGradient>
<linearGradient id="paint3_linear" x1="55.3037" y1="229.385" x2="73.6478" y2="229.385" gradientUnits="userSpaceOnUse">
<stop stop-color="#09005D"/>
<stop offset="1" stop-color="#1A0F91"/>
</linearGradient>
<linearGradient id="paint4_linear" x1="57.0484" y1="224.018" x2="62.3654" y2="224.018" gradientUnits="userSpaceOnUse">
<stop stop-color="#FEBBBA"/>
<stop offset="1" stop-color="#FF928E"/>
</linearGradient>
<linearGradient id="paint5_linear" x1="21.6666" y1="230.613" x2="32.2841" y2="230.613" gradientUnits="userSpaceOnUse">
<stop stop-color="#09005D"/>
<stop offset="1" stop-color="#1A0F91"/>
</linearGradient>
<linearGradient id="paint6_linear" x1="27.1845" y1="221.137" x2="33.5388" y2="221.137" gradientUnits="userSpaceOnUse">
<stop stop-color="#FEBBBA"/>
<stop offset="1" stop-color="#FF928E"/>
</linearGradient>
<linearGradient id="paint7_linear" x1="78.5838" y1="149.891" x2="21.2537" y2="240.275" gradientUnits="userSpaceOnUse">
<stop stop-color="#4F52FF"/>
<stop offset="1" stop-color="#4042E2"/>
</linearGradient>
<linearGradient id="paint8_linear" x1="46.3365" y1="24.4076" x2="59.4358" y2="118.744" gradientUnits="userSpaceOnUse">
<stop stop-color="#4F52FF"/>
<stop offset="1" stop-color="#4042E2"/>
</linearGradient>
<linearGradient id="paint9_linear" x1="97.0507" y1="111.185" x2="121.393" y2="73.2733" gradientUnits="userSpaceOnUse">
<stop stop-color="#FEBBBA"/>
<stop offset="1" stop-color="#FF928E"/>
</linearGradient>
<linearGradient id="paint10_linear" x1="58.491" y1="104.053" x2="61.4551" y2="89.0757" gradientUnits="userSpaceOnUse">
<stop stop-color="#FEBBBA"/>
<stop offset="1" stop-color="#FF928E"/>
</linearGradient>
<linearGradient id="paint11_linear" x1="65.941" y1="76.4989" x2="49.7922" y2="88.391" gradientUnits="userSpaceOnUse">
<stop stop-color="#FEBBBA"/>
<stop offset="1" stop-color="#FF928E"/>
</linearGradient>
<linearGradient id="paint12_linear" x1="63.9926" y1="73.8528" x2="47.8436" y2="85.7455" gradientUnits="userSpaceOnUse">
<stop stop-color="#FEBBBA"/>
<stop offset="1" stop-color="#FF928E"/>
</linearGradient>
<linearGradient id="paint13_linear" x1="136.778" y1="22.757" x2="126.909" y2="50.3861" gradientUnits="userSpaceOnUse">
<stop stop-color="#FF928E"/>
<stop offset="1" stop-color="#FE7062"/>
</linearGradient>
<linearGradient id="paint14_linear" x1="68.2583" y1="14.3579" x2="71.8746" y2="-25.233" gradientUnits="userSpaceOnUse">
<stop stop-color="#FEBBBA"/>
<stop offset="1" stop-color="#FF928E"/>
</linearGradient>
<linearGradient id="paint15_linear" x1="54.5049" y1="14.9896" x2="50.8883" y2="-24.6027" gradientUnits="userSpaceOnUse">
<stop stop-color="#FEBBBA"/>
<stop offset="1" stop-color="#FF928E"/>
</linearGradient>
<linearGradient id="paint16_linear" x1="54.8695" y1="134.838" x2="79.5195" y2="142.619" gradientUnits="userSpaceOnUse">
<stop stop-color="#09005D"/>
<stop offset="1" stop-color="#1A0F91"/>
</linearGradient>
<linearGradient id="paint17_linear" x1="88.5542" y1="118.368" x2="106.785" y2="136.913" gradientUnits="userSpaceOnUse">
<stop stop-color="#09005D"/>
<stop offset="1" stop-color="#1A0F91"/>
</linearGradient>
<linearGradient id="paint18_linear" x1="119.659" y1="141.304" x2="143.533" y2="114.376" gradientUnits="userSpaceOnUse">
<stop stop-color="#E1473D"/>
<stop offset="1" stop-color="#E9605A"/>
</linearGradient>
<linearGradient id="paint19_linear" x1="155.827" y1="93.5657" x2="84.7354" y2="197.932" gradientUnits="userSpaceOnUse">
<stop stop-color="#FF928E"/>
<stop offset="1" stop-color="#FE7062"/>
</linearGradient>
<linearGradient id="paint20_linear" x1="134.028" y1="126.923" x2="166.61" y2="90.1731" gradientUnits="userSpaceOnUse">
<stop stop-color="#E1473D"/>
<stop offset="1" stop-color="#E9605A"/>
</linearGradient>
<linearGradient id="paint21_linear" x1="183.388" y1="61.7721" x2="86.3664" y2="204.205" gradientUnits="userSpaceOnUse">
<stop stop-color="#FF928E"/>
<stop offset="1" stop-color="#FE7062"/>
</linearGradient>
<linearGradient id="paint22_linear" x1="155.527" y1="106.998" x2="201.491" y2="55.1547" gradientUnits="userSpaceOnUse">
<stop stop-color="#E1473D"/>
<stop offset="1" stop-color="#E9605A"/>
</linearGradient>
<linearGradient id="paint23_linear" x1="225.162" y1="15.0888" x2="88.2911" y2="216.021" gradientUnits="userSpaceOnUse">
<stop stop-color="#FF928E"/>
<stop offset="1" stop-color="#FE7062"/>
</linearGradient>
</defs>
</svg>
