<svg width="10" height="16" viewBox="0 0 10 16" fill="none" xmlns="http://www.w3.org/2000/svg">
<path d="M4.99976 15.9986C3.70733 16.0287 2.4552 15.5657 1.51791 14.711C0.580628 13.8563 0.0346741 12.6798 -0.000244141 11.4393V3.30449C0.0237842 2.40774 0.41696 1.55666 1.09322 0.937523C1.76949 0.318387 2.67375 -0.0183664 3.60809 0.000971079C4.54385 -0.0205147 5.45026 0.315282 6.12834 0.934646C6.80641 1.55401 7.20074 2.40632 7.22476 3.30449V11.4473C7.1901 11.9901 6.94103 12.4997 6.52836 12.8723C6.11568 13.2449 5.57047 13.4523 5.00392 13.4523C4.43738 13.4523 3.89217 13.2449 3.47949 12.8723C3.06681 12.4997 2.81774 11.9901 2.78309 11.4473V3.93639C2.78309 3.72425 2.87089 3.5208 3.02717 3.37079C3.18345 3.22078 3.39541 3.13651 3.61642 3.13651C3.83744 3.13651 4.0494 3.22078 4.20568 3.37079C4.36196 3.5208 4.44976 3.72425 4.44976 3.93639V11.4473C4.46637 11.5771 4.5319 11.6967 4.63397 11.7833C4.73605 11.87 4.86763 11.9179 5.00392 11.9179C5.14021 11.9179 5.27179 11.87 5.37387 11.7833C5.47595 11.6967 5.54147 11.5771 5.55809 11.4473V3.30449C5.53218 2.83128 5.31289 2.38698 4.94782 2.06801C4.58274 1.74903 4.10134 1.58113 3.60809 1.60074C3.11625 1.58328 2.63698 1.75216 2.27372 2.07091C1.91046 2.38966 1.69234 2.83272 1.66642 3.30449V11.4393C1.70111 12.2555 2.07139 13.0253 2.69616 13.58C3.32093 14.1347 4.14927 14.4292 4.99976 14.3989C5.85024 14.4292 6.67858 14.1347 7.30335 13.58C7.92812 13.0253 8.2984 12.2555 8.33309 11.4393V3.30449C8.33309 3.09234 8.42089 2.88889 8.57717 2.73888C8.73345 2.58888 8.94541 2.5046 9.16642 2.5046C9.38744 2.5046 9.5994 2.58888 9.75568 2.73888C9.91196 2.88889 9.99976 3.09234 9.99976 3.30449V11.4393C9.96484 12.6798 9.41888 13.8563 8.4816 14.711C7.54431 15.5657 6.29219 16.0287 4.99976 15.9986Z" fill="#6979F8"/>
</svg>
