<svg width="240" height="240" viewBox="0 0 240 240" fill="none" xmlns="http://www.w3.org/2000/svg">
<path d="M206.866 205.662C202.065 210.809 197.518 214.131 193.924 216.753C151.705 247.604 101.745 238.606 91.1224 236.417C75.4434 233.173 45.1307 226.91 23.2227 200.678C-9.92836 160.986 -4.76152 98.4534 20.9537 57.1775C25.6531 49.6249 50.5015 7.72608 101.006 1.00394C131.565 -3.06222 167.189 5.13931 192.989 27.1398C247.139 73.3297 243.281 166.644 206.866 205.662Z" fill="url(#paint0_linear)"/>
<path d="M3.60088 55.5003C3.47341 55.4484 3.37143 55.3273 3.36294 55.1803C3.32894 54.6958 3.30345 54.1941 3.28645 53.701C3.27796 53.502 3.43942 53.329 3.64338 53.329C4.13627 53.3203 4.0003 53.8134 4.09378 55.137C4.11077 55.336 3.95781 55.509 3.75385 55.5263C3.70286 55.535 3.65187 55.5263 3.60088 55.5003Z" fill="#91B3FA"/>
<path d="M3.41591 49.1065C3.50939 48.1721 3.63686 47.2291 3.79832 46.3034C3.83231 46.1044 4.01927 45.9746 4.22322 46.0092C4.7671 46.1131 4.41018 46.4245 4.14674 49.1843C4.12975 49.3833 3.95129 49.5304 3.74733 49.5044C3.54338 49.4871 3.39891 49.3054 3.41591 49.1065ZM4.87758 41.8392C5.15801 40.9395 5.47244 40.0311 5.81236 39.1746C5.99082 38.7161 6.67067 39.0102 6.49221 39.4514C6.15229 40.3079 5.84636 41.1817 5.57442 42.0555C5.51493 42.2459 5.31098 42.3497 5.11552 42.2891C4.92007 42.2372 4.81809 42.0296 4.87758 41.8392ZM7.77542 35.0392C8.22582 34.226 8.71871 33.4127 9.23709 32.6341C9.50053 32.2361 10.1124 32.6427 9.84895 33.0494C9.33907 33.8107 8.86318 34.6066 8.41278 35.4026C8.18333 35.8265 7.53748 35.4631 7.77542 35.0392ZM12.05 29.5109C11.897 29.3811 11.88 29.1475 12.0075 28.9918C12.6193 28.2911 13.2737 27.5989 13.9365 26.9414C14.2765 26.604 14.7948 27.1318 14.4549 27.4692C13.8006 28.1094 13.1632 28.7842 12.5598 29.4763C12.4324 29.632 12.2029 29.6493 12.05 29.5109ZM17.3358 24.4758C17.2083 24.3114 17.2423 24.0864 17.4037 23.9653C18.1516 23.403 18.9249 22.8579 19.7152 22.3562C20.1231 22.0966 20.5225 22.7195 20.1146 22.9791C19.3413 23.4722 18.5765 23.9999 17.8456 24.5536C17.6842 24.6747 17.4547 24.6401 17.3358 24.4758ZM23.7518 20.8249C23.6668 20.7902 23.5903 20.7297 23.5479 20.6345C23.4629 20.4528 23.5394 20.2366 23.7178 20.15C24.5676 19.7521 25.4344 19.3801 26.3097 19.0513C26.4967 18.9821 26.7091 19.0773 26.7856 19.2676C26.8621 19.4579 26.7686 19.6656 26.5817 19.7348C25.7234 20.0549 24.8651 20.4182 24.0407 20.8162C23.9473 20.8595 23.8453 20.8595 23.7518 20.8249ZM30.6522 18.4111C30.5418 18.3678 30.4568 18.2727 30.4228 18.1515C30.3718 17.9526 30.4908 17.7536 30.6862 17.7103C31.5955 17.494 32.5303 17.3124 33.4566 17.1653C33.6521 17.1307 33.8475 17.2691 33.8815 17.4681C33.9155 17.6671 33.7795 17.8574 33.5841 17.8834C32.6748 18.0218 31.7655 18.2035 30.8732 18.4197C30.7967 18.437 30.7202 18.437 30.6522 18.4111ZM37.6887 17.122C37.6802 16.923 37.8331 16.75 38.0371 16.75C38.9719 16.7241 39.9321 16.7327 40.8669 16.7846C41.3513 16.8106 41.3258 17.5373 40.8414 17.5113C39.9237 17.4594 38.9889 17.4508 38.0626 17.4767C37.8671 17.4854 37.6972 17.3297 37.6887 17.122ZM61.1264 25.0727C58.9338 23.3684 58.441 23.3943 58.7469 22.9358C58.8574 22.7714 59.0783 22.7195 59.2483 22.832C60.0386 23.3511 60.8204 23.9134 61.5683 24.4931C61.9507 24.7959 61.5088 25.3755 61.1264 25.0727ZM45.031 17.6065C45.065 17.4075 45.2519 17.2778 45.4474 17.3124C46.3737 17.4767 47.3085 17.6844 48.2263 17.9266C48.6937 18.0477 48.5237 18.7572 48.0478 18.636C47.1555 18.4024 46.2377 18.2035 45.3284 18.0391C45.133 17.9958 44.997 17.8055 45.031 17.6065ZM54.9058 21.1882C52.4243 19.9684 51.9399 20.0895 52.1439 19.579C52.2714 19.2503 52.6623 19.3714 52.6198 19.3801C53.5036 19.7348 54.3789 20.1241 55.2202 20.5394C55.3986 20.6259 55.4836 20.8508 55.3902 21.0325C55.3137 21.1969 55.1012 21.2834 54.9058 21.1882Z" fill="#91B3FA"/>
<path d="M65.5689 29.1573C64.7276 28.2403 64.2093 27.9374 64.5577 27.5827C64.7021 27.4443 64.9316 27.4443 65.076 27.5914C65.9853 28.4998 66.4356 28.8632 66.0872 29.1833C65.9768 29.2784 65.7048 29.3044 65.5689 29.1573Z" fill="#91B3FA"/>
<path d="M75.3507 55.8286C75.2063 55.7681 75.1043 55.6296 75.1128 55.4652C75.1383 54.9807 75.1553 54.4962 75.1638 54.0203C75.1638 53.8213 75.3337 53.657 75.5376 53.6656C75.7415 53.6743 75.903 53.8386 75.903 54.0376C75.8945 54.5308 75.8775 55.024 75.852 55.5171C75.8435 55.7161 75.6651 55.8719 75.4697 55.8546C75.4187 55.8546 75.3847 55.8459 75.3507 55.8286Z" fill="#91B3FA"/>
<path d="M26.0287 86.5661C25.0855 86.1768 24.1507 85.7356 23.2499 85.2684C23.0714 85.1733 22.9949 84.957 23.0884 84.7753C23.3434 84.2735 23.5473 84.7407 26.3007 85.8913C26.4876 85.9692 26.5811 86.1855 26.5046 86.3672C26.3687 86.6959 25.9778 86.5661 26.0287 86.5661ZM30.4732 87.7254C30.6092 87.1804 30.9321 87.5957 33.847 88.1234C34.0509 88.158 34.1784 88.3483 34.1444 88.5473C34.1104 88.7463 33.9234 88.8761 33.728 88.8415C32.7337 88.6598 31.7309 88.4348 30.7452 88.1753C30.5412 88.1147 30.4222 87.9158 30.4732 87.7254ZM18.9754 82.6816C18.1425 82.0933 17.3182 81.4618 16.5364 80.8043C16.3834 80.6745 16.358 80.4409 16.4854 80.2852C16.8508 79.8526 16.9443 80.3544 19.3918 82.076C19.5617 82.1972 19.6042 82.4221 19.4852 82.5865C19.3748 82.7595 19.1453 82.7941 18.9754 82.6816ZM38.5379 89.3606C38.3934 89.3087 38.2914 89.1616 38.2999 89.0059C38.3084 88.8069 38.4699 88.6511 38.6738 88.6511C39.6681 88.6944 40.6709 88.6944 41.6652 88.6511C41.8691 88.6425 42.0391 88.7982 42.0476 88.9972C42.0561 89.1962 41.9031 89.3692 41.7077 89.3779C40.6964 89.4211 39.6681 89.4211 38.6569 89.3779C38.6144 89.3779 38.5719 89.3692 38.5379 89.3606ZM46.4156 88.8069C46.2966 88.7636 46.2116 88.6598 46.1861 88.53C46.1436 88.331 46.2796 88.1407 46.4751 88.1061C47.4438 87.9244 48.4211 87.7081 49.3814 87.4486C49.5769 87.3967 49.7808 87.5092 49.8318 87.7081C49.8913 87.9071 49.7723 88.1061 49.5854 88.158C48.6081 88.4262 47.6138 88.6511 46.6195 88.8328C46.543 88.8328 46.4751 88.8328 46.4156 88.8069ZM53.9618 86.5315C53.8684 86.4969 53.7919 86.4277 53.7579 86.3326C53.6729 86.1422 53.7579 85.9346 53.9449 85.8567C54.8541 85.4674 55.7549 85.0348 56.6302 84.5763C56.8087 84.4811 57.0297 84.5504 57.1231 84.732C57.2166 84.9137 57.1571 85.13 56.9787 85.2252C56.0864 85.701 55.1686 86.1336 54.2423 86.5315C54.1488 86.5661 54.0468 86.5661 53.9618 86.5315ZM60.8028 82.6643C60.7348 82.6384 60.6753 82.5951 60.6328 82.5346C60.5139 82.3702 60.5478 82.1453 60.7093 82.0241C61.5081 81.4445 62.29 80.8302 63.0378 80.1814C63.1907 80.0516 63.4202 80.0689 63.5562 80.2246C63.6921 80.3804 63.6751 80.6053 63.5222 80.7437C62.7573 81.4012 61.9585 82.0328 61.1427 82.6211C61.0492 82.699 60.9133 82.7076 60.8028 82.6643ZM66.505 77.3091C66.0801 76.9284 66.5815 76.8506 68.3321 74.4801C68.621 74.0908 69.2074 74.532 68.9269 74.9213C68.3321 75.7345 67.6947 76.5218 67.0234 77.2832C66.8959 77.4302 66.658 77.4475 66.505 77.3091ZM71.0684 70.907C70.5671 70.6302 71.0429 70.4485 72.2157 67.7406C72.4111 67.2994 73.0825 67.6022 72.887 68.0434C72.4876 68.9691 72.0372 69.8862 71.5613 70.7686C71.4679 70.9417 71.2384 71.0022 71.0684 70.907ZM74.0598 63.6225C73.8813 63.5533 73.7793 63.363 73.8388 63.1813C74.1107 62.221 74.3402 61.252 74.5271 60.2831C74.5611 60.0841 74.7566 59.9543 74.952 59.9976C75.1475 60.0408 75.2835 60.2312 75.241 60.4302C75.054 61.4164 74.8161 62.4113 74.5441 63.3889C74.4932 63.5793 74.2892 63.6917 74.0938 63.6398C74.0853 63.6312 74.0768 63.6312 74.0598 63.6225Z" fill="#91B3FA"/>
<path d="M12.9253 77.3354C12.0585 76.3837 11.6251 76.003 11.9905 75.7002C12.3644 75.3801 12.5769 75.8732 13.4692 76.8509C13.6052 76.998 13.5967 77.2316 13.4522 77.37C13.2907 77.4912 13.0613 77.4825 12.9253 77.3354Z" fill="#91B3FA"/>
<path d="M16.9183 68.0786L22.1191 67.4211C23.6997 69.3157 25.5948 70.9768 27.7533 72.3178C27.9573 77.4221 27.6173 77.7941 28.1527 77.9758L34.1439 80.0089C34.3223 80.0694 34.5093 80.0089 34.6198 79.8618L37.7726 75.7178C40.288 75.9687 42.7779 75.787 45.1574 75.242L48.939 78.9448C49.075 79.0745 49.2705 79.1091 49.4319 79.0226L55.0407 76.2455C55.2021 76.1677 55.2956 75.986 55.2701 75.8043L54.5393 70.5961C56.4089 69.0389 58.0405 67.1702 59.3492 65.0246L64.5925 65.0073C64.7795 65.0073 64.9409 64.8862 64.9919 64.7132L66.9295 58.7524C66.989 58.5793 66.9295 58.389 66.7765 58.2765L62.587 55.0582C62.7994 52.5493 62.587 50.0491 61.9921 47.6613C65.4763 43.9412 65.9607 43.9412 65.7058 43.4394C62.7994 37.9457 62.9694 37.4786 62.4 37.5478L57.1992 38.2053C55.6185 36.3106 53.7235 34.6495 51.5649 33.3086C51.361 28.2129 51.7009 27.8322 51.1655 27.6505C45.1829 25.7386 45.0384 25.3147 44.6985 25.7645L41.5457 29.9086C39.0303 29.6577 36.5403 29.8394 34.1609 30.3844C30.4387 26.8892 30.3877 26.3528 29.8863 26.6037C24.3881 29.4587 23.9717 29.2597 24.0482 29.8221L24.779 35.0302C22.9094 36.5875 21.2778 38.4562 19.9691 40.6017C14.9637 40.7228 14.4963 40.3681 14.3179 40.9132C12.4993 46.848 12.0744 47.0124 12.5248 47.3585L16.7143 50.5768C16.5019 53.0857 16.7143 55.586 17.3092 57.9737C13.842 61.6765 13.3406 61.6939 13.5955 62.1956C16.5189 67.6806 16.3489 68.1478 16.9183 68.0786Z" fill="#91B3FA"/>
<path d="M33.5401 52.3082C33.7611 48.9342 36.6929 46.408 40.0752 46.6848C43.4489 46.9617 46.0239 49.9291 45.7944 53.3031C45.5735 56.6772 42.6416 59.2034 39.2594 58.9265C35.8771 58.6583 33.3107 55.6822 33.5401 52.3082ZM39.9987 47.7749C37.2538 47.55 34.8234 49.583 34.6364 52.3947C34.4494 55.1718 36.5655 57.6115 39.3359 57.8364C42.1062 58.0614 44.5197 55.985 44.6982 53.2166C44.8766 50.4309 42.7691 47.9998 39.9987 47.7749Z" fill="#BDD0FB"/>
<path d="M34.3229 67.4304C33.4731 67.1016 32.6488 66.7036 31.867 66.2365C31.629 66.098 31.5356 65.8126 31.629 65.5703C31.6375 65.5444 31.6545 65.5098 31.6715 65.4838C31.8245 65.2243 32.1559 65.1377 32.4194 65.2935C33.3117 65.8299 34.272 66.2711 35.2662 66.6085C42.7616 69.152 50.8093 65.3108 53.5117 58.0263C53.5797 57.836 53.6477 57.6543 53.7072 57.464C56.2141 49.7643 51.9566 41.4676 44.2828 38.8636C36.6259 36.2682 28.3403 40.3343 25.8333 48.0081C24.3461 52.576 25.6464 55.6472 25.4679 56.1144C25.2809 56.6248 24.5416 56.5642 24.4226 56.0365C23.7598 53.1383 23.9042 50.0065 25.0005 47.0478C29.734 34.287 47.5715 33.5084 53.7837 45.7847C55.6957 49.5567 56.0357 53.8304 54.744 57.8187C54.676 58.0263 54.608 58.2253 54.5315 58.4329C53.1548 62.1357 50.4779 65.1204 46.9257 66.8767C43.178 68.7367 38.9119 69.0136 34.9178 67.6553C34.7224 67.5774 34.5184 67.5082 34.3229 67.4304Z" fill="#BDD0FB"/>
<path d="M64.9488 28.7151C64.8724 28.6805 64.8129 28.6113 64.8044 28.5248C64.7789 28.2306 64.7704 27.9278 64.7534 27.625C64.7534 27.5039 64.8469 27.4001 64.9658 27.4001C65.2632 27.3914 65.1782 27.6942 65.2377 28.4988C65.2462 28.6199 65.1528 28.7238 65.0338 28.7324C65.0083 28.7324 64.9743 28.7324 64.9488 28.7151Z" fill="#91B3FA"/>
<path d="M64.834 24.8392C64.885 24.2682 64.97 23.6973 65.0635 23.1349C65.0805 23.0138 65.1994 22.9359 65.3184 22.9619C65.6498 23.0225 65.4289 23.2128 65.2759 24.8911C65.2674 25.0123 65.1569 25.0988 65.038 25.0901C64.9105 25.0642 64.817 24.9603 64.834 24.8392ZM65.7178 20.427C65.8878 19.882 66.0832 19.3283 66.2872 18.8092C66.3977 18.5324 66.8056 18.7141 66.7036 18.9823C66.4997 19.5014 66.3127 20.0291 66.1427 20.5655C66.1087 20.6779 65.9813 20.7471 65.8623 20.7039C65.7433 20.6693 65.6838 20.5482 65.7178 20.427ZM67.4769 16.309C67.7489 15.8159 68.0548 15.3228 68.3607 14.8469C68.5222 14.6047 68.8961 14.8556 68.7346 15.0978C68.4287 15.565 68.1313 16.0408 67.8678 16.5253C67.7234 16.7848 67.3325 16.5599 67.4769 16.309ZM70.0688 12.9523C69.9754 12.8744 69.9669 12.7273 70.0433 12.6408C70.4173 12.2169 70.8082 11.793 71.2161 11.395C71.4285 11.1874 71.7345 11.5075 71.5305 11.7151C71.1311 12.1045 70.7487 12.5111 70.3833 12.935C70.2983 13.0215 70.1623 13.0301 70.0688 12.9523ZM73.2726 9.89836C73.1961 9.8032 73.2131 9.66477 73.3151 9.58691C73.7655 9.24951 74.2414 8.92076 74.7173 8.60931C74.9637 8.45359 75.2017 8.82559 74.9637 8.98132C74.4963 9.28412 74.029 9.60422 73.5871 9.93297C73.4851 10.0195 73.3491 9.99353 73.2726 9.89836ZM77.1647 7.68362C77.1138 7.66631 77.0713 7.62306 77.0458 7.57115C76.9948 7.45868 77.0373 7.32891 77.1477 7.277C77.6576 7.03477 78.193 6.80983 78.7199 6.61085C78.8304 6.5676 78.9663 6.62816 79.0088 6.74062C79.0513 6.85309 79.0003 6.98286 78.8813 7.02612C78.363 7.2251 77.8446 7.44138 77.3347 7.68362C77.2837 7.70092 77.2242 7.70092 77.1647 7.68362ZM81.3543 6.21289C81.2863 6.18693 81.2353 6.13503 81.2183 6.05717C81.1843 5.93605 81.2608 5.81493 81.3798 5.78898C81.9322 5.65921 82.5015 5.54673 83.0624 5.46022C83.1814 5.44292 83.3004 5.52078 83.3174 5.6419C83.3344 5.76302 83.2579 5.87549 83.1389 5.89279C82.5865 5.9793 82.0341 6.09177 81.4903 6.21289C81.4393 6.23884 81.3968 6.23019 81.3543 6.21289ZM85.6203 5.43427C85.6118 5.31315 85.7138 5.20934 85.8328 5.20934C86.4022 5.19203 86.98 5.20068 87.5494 5.23529C87.8468 5.25259 87.8298 5.69381 87.5324 5.6765C86.9715 5.65055 86.4106 5.6419 85.8498 5.65921C85.7308 5.65921 85.6288 5.55539 85.6203 5.43427ZM99.8376 10.2617C98.5119 9.23221 98.206 9.24951 98.3929 8.96401C98.4609 8.8602 98.5969 8.83425 98.6989 8.90346C99.1748 9.22356 99.6507 9.56096 100.11 9.91566C100.339 10.0887 100.076 10.4434 99.8376 10.2617ZM90.0733 5.72842C90.0903 5.6073 90.2093 5.52943 90.3283 5.54673C90.8891 5.65055 91.4585 5.77167 92.0109 5.91875C92.2998 5.99661 92.1893 6.42052 91.9089 6.35131C91.365 6.21289 90.8127 6.08312 90.2603 5.98796C90.1328 5.97065 90.0563 5.84953 90.0733 5.72842ZM96.0645 7.8999C94.5603 7.15589 94.2714 7.23375 94.3903 6.9223C94.4668 6.72332 94.7048 6.80118 94.6793 6.80118C95.2147 7.01746 95.7415 7.25105 96.2599 7.50194C96.3704 7.55385 96.4214 7.69227 96.3619 7.79608C96.3109 7.90855 96.1834 7.96046 96.0645 7.8999Z" fill="#91B3FA"/>
<path d="M102.536 12.7363C102.026 12.1826 101.712 11.9922 101.924 11.7846C102.009 11.6981 102.154 11.6981 102.239 11.7846C102.791 12.3383 103.063 12.5546 102.85 12.7536C102.791 12.8055 102.621 12.8228 102.536 12.7363Z" fill="#91B3FA"/>
<path d="M108.475 28.9142C108.39 28.8796 108.322 28.7931 108.331 28.6893C108.348 28.3951 108.356 28.1009 108.356 27.8154C108.356 27.6943 108.458 27.5991 108.577 27.5991C108.696 27.5991 108.798 27.7029 108.798 27.8241C108.798 28.1182 108.781 28.4211 108.773 28.7239C108.764 28.845 108.662 28.9402 108.543 28.9315C108.518 28.9315 108.492 28.9229 108.475 28.9142Z" fill="#91B3FA"/>
<path d="M78.5463 47.5664C77.9769 47.3328 77.4076 47.0646 76.8552 46.7791C76.7447 46.7185 76.7022 46.5888 76.7532 46.4763C76.9062 46.1735 77.0336 46.459 78.7078 47.1511C78.8183 47.1944 78.8777 47.3328 78.8352 47.4452C78.7588 47.6442 78.5208 47.5664 78.5463 47.5664ZM81.2487 48.2671C81.3337 47.9297 81.5291 48.1893 83.2968 48.5094C83.4157 48.5267 83.5007 48.6478 83.4837 48.7689C83.4667 48.89 83.3477 48.9679 83.2288 48.9506C82.6254 48.8381 82.0135 48.7083 81.4187 48.544C81.2912 48.5094 81.2147 48.3796 81.2487 48.2671ZM74.2718 45.2045C73.7704 44.8498 73.269 44.4692 72.7931 44.0712C72.6996 43.9933 72.6826 43.8549 72.7591 43.7598C72.9801 43.5002 73.0395 43.803 74.5182 44.8498C74.6202 44.919 74.6457 45.0575 74.5777 45.1613C74.5097 45.2564 74.3737 45.2737 74.2718 45.2045ZM86.1436 49.2534C86.0586 49.2188 85.9991 49.1323 85.9991 49.0371C85.9991 48.916 86.1011 48.8208 86.2286 48.8208C86.832 48.8468 87.4438 48.8468 88.0387 48.8208C88.1577 48.8122 88.2681 48.9073 88.2766 49.0371C88.2851 49.1582 88.1917 49.262 88.0642 49.2707C87.4523 49.2966 86.832 49.2966 86.2116 49.2707C86.1861 49.2707 86.1606 49.262 86.1436 49.2534ZM90.9195 48.9246C90.8516 48.8987 90.7921 48.8381 90.7751 48.7603C90.7496 48.6391 90.8261 48.5267 90.9535 48.5007C91.5399 48.3969 92.1348 48.2585 92.7126 48.1027C92.8316 48.0681 92.9506 48.1374 92.9846 48.2585C93.0186 48.3796 92.9506 48.5007 92.8316 48.5267C92.2368 48.691 91.6334 48.8295 91.03 48.9333C90.996 48.9419 90.962 48.9333 90.9195 48.9246ZM95.5 47.5491C95.449 47.5318 95.398 47.4885 95.3726 47.4279C95.3216 47.3155 95.3726 47.1857 95.483 47.1338C96.0354 46.9002 96.5793 46.6407 97.1062 46.3552C97.2166 46.2946 97.3526 46.3379 97.4036 46.4503C97.4631 46.5628 97.4206 46.6926 97.3186 46.7531C96.7832 47.0386 96.2224 47.3068 95.6615 47.5491C95.6105 47.5664 95.551 47.5664 95.5 47.5491ZM99.6471 45.1959C99.6046 45.1786 99.5706 45.1526 99.5451 45.118C99.4686 45.0142 99.4941 44.8758 99.5961 44.8066C100.08 44.4605 100.556 44.0799 101.007 43.6905C101.1 43.6127 101.236 43.6213 101.321 43.7165C101.406 43.8117 101.389 43.9501 101.304 44.0279C100.845 44.4259 100.352 44.8066 99.8596 45.1699C99.7916 45.2132 99.7151 45.2218 99.6471 45.1959ZM103.106 41.9516C102.842 41.718 103.148 41.6748 104.211 40.2386C104.381 40.0051 104.746 40.2732 104.567 40.5068C104.202 41 103.82 41.4758 103.412 41.9343C103.344 42.0208 103.199 42.0295 103.106 41.9516ZM105.876 38.0671C105.57 37.9028 105.859 37.7903 106.573 36.1465C106.692 35.8783 107.1 36.06 106.981 36.3282C106.735 36.8906 106.463 37.4442 106.174 37.9806C106.114 38.0844 105.978 38.1191 105.876 38.0671ZM107.695 33.6463C107.584 33.603 107.525 33.4906 107.559 33.3781C107.72 32.7985 107.865 32.2015 107.975 31.6219C108.001 31.5007 108.111 31.4229 108.239 31.4488C108.358 31.4748 108.434 31.5873 108.417 31.7084C108.298 32.3053 108.162 32.9109 107.992 33.5079C107.958 33.629 107.839 33.6895 107.72 33.6549C107.703 33.6463 107.695 33.6463 107.695 33.6463Z" fill="#91B3FA"/>
<path d="M70.5994 41.9604C70.0726 41.3809 69.8092 41.156 70.0301 40.9657C70.2595 40.7754 70.387 41.0695 70.9223 41.6663C71.0073 41.7614 70.9988 41.8998 70.9138 41.9777C70.8203 42.0642 70.6844 42.0555 70.5994 41.9604Z" fill="#91B3FA"/>
<path d="M73.0226 36.3458L76.1754 35.9478C77.1357 37.0984 78.2829 38.1107 79.5916 38.9152C79.7106 42.0124 79.5067 42.2374 79.8296 42.3498L83.4668 43.5783C83.5688 43.613 83.6877 43.5783 83.7557 43.4918L85.6678 40.9743C87.189 41.1213 88.7016 41.0175 90.1463 40.6801L92.4408 42.9295C92.5173 43.0074 92.6447 43.0247 92.7382 42.9814L96.1375 41.2944C96.2394 41.2425 96.2904 41.1386 96.2734 41.0262L95.8315 37.8598C96.9703 36.9168 97.9561 35.7834 98.7464 34.4857L101.925 34.4771C102.035 34.4771 102.137 34.4079 102.171 34.2954L103.344 30.6791C103.378 30.5753 103.344 30.4542 103.25 30.3849L100.709 28.4297C100.837 26.9071 100.709 25.3931 100.353 23.9396C102.46 21.6816 102.757 21.6816 102.605 21.3788C100.845 18.048 100.939 17.7625 100.599 17.8058L97.4462 18.2038C96.4859 17.0531 95.3386 16.0409 94.0299 15.2363C93.911 12.1391 94.1149 11.9142 93.792 11.8017C90.1633 10.6424 90.0698 10.3829 89.8659 10.6597L87.9538 13.1773C86.4326 13.0302 84.92 13.134 83.4753 13.4714C81.2148 11.3518 81.1893 11.0231 80.8834 11.1788C77.5436 12.9091 77.2972 12.788 77.3396 13.134L77.7815 16.3004C76.6428 17.2435 75.657 18.3768 74.8667 19.6745C71.8329 19.7524 71.5439 19.5361 71.442 19.8648C70.3372 23.4638 70.0823 23.5676 70.3542 23.7753L72.8951 25.7305C72.7677 27.2531 72.8951 28.7671 73.252 30.2206C71.1445 32.4699 70.8471 32.4786 71 32.7814C72.7847 36.1122 72.6827 36.389 73.0226 36.3458Z" fill="#91B3FA"/>
<path d="M83.1108 26.777C83.2468 24.7267 85.0228 23.1954 87.0708 23.3597C89.1188 23.5241 90.6739 25.3322 90.5465 27.374C90.4105 29.4243 88.6344 30.9556 86.5864 30.7912C84.53 30.6269 82.9749 28.8274 83.1108 26.777ZM87.0283 24.0259C85.3628 23.8875 83.8841 25.1246 83.7737 26.8289C83.6632 28.5073 84.9379 29.9953 86.6289 30.1251C88.3115 30.2635 89.7732 29.0004 89.8836 27.322C89.9856 25.6437 88.7109 24.1643 87.0283 24.0259Z" fill="#BDD0FB"/>
<path d="M83.5853 35.9557C83.067 35.7568 82.5656 35.5145 82.0982 35.2377C81.9537 35.1512 81.8943 34.9781 81.9537 34.8311C81.9622 34.8138 81.9707 34.7965 81.9792 34.7792C82.0727 34.6234 82.2767 34.5715 82.4381 34.6667C82.982 34.9868 83.5598 35.255 84.1632 35.4626C88.7096 37.0026 93.5959 34.6753 95.236 30.2545C95.2785 30.142 95.321 30.0295 95.355 29.9084C96.8761 25.2367 94.2927 20.2015 89.6359 18.627C84.9875 17.0524 79.9652 19.5181 78.4441 24.1725C77.5433 26.941 78.3336 28.801 78.2231 29.0865C78.1127 29.398 77.6623 29.3547 77.5858 29.0346C77.1779 27.2784 77.2714 25.3751 77.9342 23.5842C80.8065 15.8412 91.6244 15.374 95.3975 22.8143C96.5617 25.1069 96.7656 27.6937 95.9753 30.116C95.9328 30.2372 95.8903 30.3669 95.8479 30.4881C95.0151 32.7288 93.392 34.5456 91.2335 35.6097C88.9645 36.7344 86.3727 36.9074 83.9507 36.0769C83.8233 36.0423 83.7043 35.999 83.5853 35.9557Z" fill="#BDD0FB"/>
<path d="M84.0375 154.948H51.1751C48.8721 154.948 46.7476 156.661 46.7476 157.846V230.475C46.7476 231.66 48.8721 232.828 51.1751 232.828H84.0375C86.3405 232.828 89.0089 231.66 89.0089 230.475V157.846C89.0004 156.652 86.3405 154.948 84.0375 154.948Z" fill="#91B3FA"/>
<path d="M41.3607 181.577C41.3607 180.963 39.2872 180.331 36.9842 180.331H4.48745C2.18447 180.331 0.12793 180.963 0.12793 181.577V231.625C0.12793 232.24 2.18447 232.819 4.48745 232.819H36.9757C39.2787 232.819 41.3522 232.24 41.3522 231.625V181.577H41.3607Z" fill="#91B3FA"/>
<path d="M228.292 62.7411C228.292 61.2357 225.819 60.0938 223.508 60.0938H190.612C188.309 60.0938 186.541 61.2271 186.541 62.7411V229.644C186.541 231.149 188.309 232.819 190.612 232.819H223.508C225.811 232.819 228.292 231.149 228.292 229.644V62.7411Z" fill="#91B3FA"/>
<path d="M135.194 125.187C135.194 124.079 133.206 123.05 130.903 123.05H98.4146C96.1116 123.05 94.48 124.079 94.48 125.187V230.682C94.48 231.789 96.1116 232.819 98.4146 232.819H130.903C133.206 232.819 135.194 231.798 135.194 230.682V125.187Z" fill="#91B3FA"/>
<path d="M181.448 92.5883C181.448 91.3425 179.621 90.512 177.318 90.512H144.83C142.527 90.512 140.734 91.3425 140.734 92.5883V230.665C140.734 231.911 142.527 232.81 144.83 232.81H177.318C179.621 232.81 181.448 231.902 181.448 230.665V92.5883Z" fill="#91B3FA"/>
<path d="M178.771 60.8637L205.072 21.4478C205.837 20.3059 207.435 20.2886 208.208 21.4219L235.325 60.8377C236.26 62.196 235.342 64.0993 233.761 64.0993H180.343C178.779 64.0993 177.862 62.2219 178.771 60.8637Z" fill="#91B3FA"/>
<path d="M209.297 177.033C223.687 177.033 235.352 165.158 235.352 150.508C235.352 135.858 223.687 123.983 209.297 123.983C194.907 123.983 183.242 135.858 183.242 150.508C183.242 165.158 194.907 177.033 209.297 177.033Z" fill="url(#paint1_linear)"/>
<path d="M209.296 176.151C223.207 176.151 234.484 164.671 234.484 150.508C234.484 136.346 223.207 124.866 209.296 124.866C195.385 124.866 184.107 136.346 184.107 150.508C184.107 164.671 195.385 176.151 209.296 176.151Z" fill="url(#paint2_linear)"/>
<path opacity="0.78" d="M224.923 166.419C233.25 157.942 233.25 144.198 224.923 135.721C216.597 127.245 203.097 127.245 194.77 135.721C186.444 144.198 186.444 157.942 194.77 166.419C203.097 174.896 216.597 174.896 224.923 166.419Z" fill="white"/>
<path d="M213.313 162.719H207.145V167.711H201.729V162.719H198.292V158.482H201.729V154.714H198.292V150.006H201.729V134.702H210.629C213.015 134.702 214.961 135.016 216.468 135.644C218.006 136.272 219.215 137.088 220.094 138.093C220.973 139.066 221.569 140.149 221.883 141.342C222.197 142.534 222.354 143.712 222.354 144.873C222.354 146.003 222.166 147.165 221.789 148.358C221.444 149.519 220.816 150.586 219.905 151.56C218.995 152.501 217.771 153.286 216.232 153.914C214.726 154.51 212.811 154.809 210.488 154.809H207.145V158.482H213.313V162.719ZM207.145 150.006H210.582C211.241 150.006 211.932 149.943 212.654 149.817C213.407 149.66 214.098 149.394 214.726 149.017C215.385 148.64 215.919 148.122 216.327 147.463C216.735 146.772 216.939 145.893 216.939 144.826C216.939 143.727 216.75 142.833 216.374 142.142C216.028 141.451 215.558 140.918 214.961 140.541C214.365 140.133 213.69 139.866 212.936 139.741C212.214 139.584 211.461 139.505 210.676 139.505H207.145V150.006Z" fill="#FF837B"/>
<path d="M234.52 194.396H184.075C183.905 194.396 183.769 194.258 183.769 194.085V184.81C183.769 184.637 183.905 184.499 184.075 184.499H234.52C234.69 184.499 234.826 184.637 234.826 184.81V194.085C234.826 194.258 234.69 194.396 234.52 194.396Z" fill="url(#paint3_linear)"/>
<path d="M234.562 205.574H184.117C183.948 205.574 183.812 205.436 183.812 205.263V195.989C183.812 195.816 183.948 195.677 184.117 195.677H234.562C234.732 195.677 234.868 195.816 234.868 195.989V205.263C234.868 205.436 234.732 205.574 234.562 205.574Z" fill="url(#paint4_linear)"/>
<path d="M234.602 216.753H184.158C183.988 216.753 183.852 216.614 183.852 216.441V207.167C183.852 206.994 183.988 206.855 184.158 206.855H234.602C234.772 206.855 234.908 206.994 234.908 207.167V216.441C234.908 216.614 234.772 216.753 234.602 216.753Z" fill="url(#paint5_linear)"/>
<path d="M234.64 227.645H184.195C184.025 227.645 183.889 227.506 183.889 227.333V218.059C183.889 217.886 184.025 217.748 184.195 217.748H234.64C234.81 217.748 234.946 217.886 234.946 218.059V227.333C234.954 227.506 234.81 227.645 234.64 227.645Z" fill="url(#paint6_linear)"/>
<path d="M234.679 238.536H184.234C184.064 238.536 183.928 238.398 183.928 238.225V228.951C183.928 228.778 184.064 228.639 184.234 228.639H234.679C234.849 228.639 234.985 228.778 234.985 228.951V238.225C234.985 238.398 234.849 238.536 234.679 238.536Z" fill="url(#paint7_linear)"/>
<path d="M153.982 188.792C168.372 188.792 180.037 176.917 180.037 162.267C180.037 147.618 168.372 135.742 153.982 135.742C139.592 135.742 127.927 147.618 127.927 162.267C127.927 176.917 139.592 188.792 153.982 188.792Z" fill="url(#paint8_linear)"/>
<path d="M153.983 187.909C167.894 187.909 179.171 176.428 179.171 162.266C179.171 148.104 167.894 136.623 153.983 136.623C140.072 136.623 128.794 148.104 128.794 162.266C128.794 176.428 140.072 187.909 153.983 187.909Z" fill="url(#paint9_linear)"/>
<path opacity="0.78" d="M169.609 178.175C177.936 169.698 177.936 155.955 169.609 147.478C161.282 139.001 147.782 139.001 139.456 147.478C131.129 155.955 131.129 169.698 139.456 178.175C147.782 186.652 161.282 186.652 169.609 178.175Z" fill="white"/>
<path d="M157.673 174.742H151.504V179.733H146.089V174.742H142.652V170.504H146.089V166.737H142.652V162.028H146.089V146.725H154.989C157.375 146.725 159.321 147.039 160.828 147.667C162.366 148.295 163.575 149.111 164.454 150.115C165.333 151.088 165.929 152.171 166.243 153.364C166.557 154.557 166.714 155.734 166.714 156.896C166.714 158.026 166.525 159.187 166.149 160.38C165.803 161.542 165.176 162.609 164.265 163.582C163.355 164.524 162.131 165.309 160.592 165.937C159.086 166.533 157.171 166.831 154.848 166.831H151.504V170.504H157.673V174.742ZM151.504 162.028H154.942C155.601 162.028 156.292 161.966 157.014 161.84C157.767 161.683 158.458 161.416 159.086 161.04C159.745 160.663 160.278 160.145 160.687 159.486C161.095 158.795 161.299 157.916 161.299 156.849C161.299 155.75 161.11 154.855 160.734 154.165C160.388 153.474 159.917 152.941 159.321 152.564C158.725 152.156 158.05 151.889 157.296 151.763C156.574 151.606 155.821 151.528 155.036 151.528H151.504V162.028Z" fill="#FF837B"/>
<path d="M179.205 204.996H128.76C128.59 204.996 128.454 204.857 128.454 204.684V195.41C128.454 195.237 128.59 195.098 128.76 195.098H179.205C179.375 195.098 179.511 195.237 179.511 195.41V204.684C179.511 204.857 179.375 204.996 179.205 204.996Z" fill="url(#paint10_linear)"/>
<path d="M179.247 216.174H128.803C128.633 216.174 128.497 216.035 128.497 215.862V206.588C128.497 206.415 128.633 206.277 128.803 206.277H179.247C179.417 206.277 179.553 206.415 179.553 206.588V215.862C179.553 216.035 179.417 216.174 179.247 216.174Z" fill="url(#paint11_linear)"/>
<path d="M179.281 227.36H128.837C128.667 227.36 128.531 227.221 128.531 227.048V217.774C128.531 217.601 128.667 217.463 128.837 217.463H179.281C179.451 217.463 179.587 217.601 179.587 217.774V227.048C179.595 227.213 179.451 227.36 179.281 227.36Z" fill="url(#paint12_linear)"/>
<path d="M179.324 238.537H128.88C128.71 238.537 128.574 238.398 128.574 238.225V228.951C128.574 228.778 128.71 228.639 128.88 228.639H179.324C179.494 228.639 179.63 228.778 179.63 228.951V238.225C179.63 238.398 179.494 238.537 179.324 238.537Z" fill="url(#paint13_linear)"/>
<path d="M33.5328 214.424C33.4138 214.424 33.2949 214.372 33.2099 214.268C32.9635 213.974 32.717 213.671 32.4791 213.377C32.3262 213.196 32.3516 212.919 32.5386 212.763C32.717 212.608 32.9889 212.642 33.1419 212.824C33.3798 213.118 33.6262 213.412 33.8642 213.706C34.0171 213.888 33.9916 214.164 33.8132 214.32C33.7282 214.389 33.6347 214.424 33.5328 214.424Z" fill="url(#paint14_linear)"/>
<path d="M31.399 211.734C31.2715 211.734 31.144 211.674 31.0591 211.561C30.6002 210.947 30.1413 210.324 29.7079 209.701C29.5719 209.502 29.6144 209.234 29.8098 209.095C29.9968 208.957 30.2687 209 30.4047 209.199C30.8381 209.813 31.2885 210.428 31.7389 211.033C31.8834 211.224 31.8494 211.492 31.6624 211.639C31.5774 211.708 31.4925 211.734 31.399 211.734ZM28.7731 207.997C28.6371 207.997 28.5011 207.927 28.4162 207.806C27.9998 207.166 27.5833 206.509 27.1924 205.851C27.0735 205.643 27.1329 205.384 27.3284 205.254C27.5324 205.133 27.7958 205.194 27.9148 205.401C28.3057 206.05 28.7136 206.699 29.1215 207.331C29.249 207.53 29.198 207.798 29.0025 207.936C28.9345 207.971 28.8496 207.997 28.7731 207.997ZM26.4106 204.078C26.2576 204.078 26.1217 204 26.0367 203.853C25.6628 203.178 25.2974 202.494 24.9574 201.82C24.847 201.603 24.9319 201.344 25.1444 201.231C25.3484 201.119 25.6118 201.205 25.7223 201.422C26.0622 202.088 26.4191 202.763 26.793 203.429C26.912 203.636 26.8355 203.905 26.6316 204.017C26.5551 204.06 26.4786 204.078 26.4106 204.078ZM24.3371 199.985C24.1756 199.985 24.0226 199.89 23.9547 199.735C23.6317 199.034 23.3173 198.324 23.0284 197.624C22.9349 197.399 23.0369 197.148 23.2578 197.053C23.4703 196.957 23.7252 197.061 23.8187 197.286C24.1076 197.978 24.4136 198.679 24.7365 199.371C24.8385 199.588 24.745 199.847 24.5325 199.951C24.4561 199.977 24.3966 199.985 24.3371 199.985ZM22.5695 195.755C22.3995 195.755 22.2381 195.651 22.1701 195.478C21.8981 194.751 21.6432 194.025 21.4052 193.298C21.3288 193.073 21.4477 192.822 21.6772 192.753C21.8981 192.675 22.1446 192.796 22.2126 193.03C22.4505 193.748 22.697 194.466 22.9604 195.184C23.0454 195.409 22.9349 195.66 22.7139 195.746C22.6715 195.746 22.6205 195.755 22.5695 195.755ZM21.1418 191.395C20.9548 191.395 20.7849 191.273 20.7339 191.083C20.5214 190.348 20.326 189.595 20.1475 188.842C20.088 188.609 20.2325 188.375 20.462 188.315C20.6914 188.254 20.9208 188.401 20.9803 188.635C21.1588 189.37 21.3543 190.114 21.5582 190.841C21.6262 191.075 21.4902 191.308 21.2693 191.377C21.2268 191.386 21.1843 191.395 21.1418 191.395ZM20.071 186.93C19.8756 186.93 19.6971 186.792 19.6546 186.584C19.5017 185.823 19.3742 185.062 19.2552 184.3C19.2212 184.067 19.3742 183.842 19.6121 183.807C19.8501 183.773 20.0625 183.928 20.0965 184.171C20.207 184.915 20.343 185.667 20.4874 186.411C20.5299 186.645 20.3855 186.879 20.156 186.922C20.1305 186.922 20.0965 186.93 20.071 186.93ZM19.3742 182.389C19.1618 182.389 18.9748 182.224 18.9493 181.999C18.8643 181.247 18.7963 180.468 18.7453 179.689C18.7283 179.447 18.9068 179.239 19.1448 179.231C19.3742 179.213 19.5867 179.395 19.5952 179.637C19.6461 180.407 19.7141 181.169 19.7991 181.913C19.8246 182.155 19.6546 182.363 19.4252 182.389C19.4082 182.389 19.3912 182.389 19.3742 182.389ZM19.0598 177.803C18.8303 177.803 18.6434 177.613 18.6349 177.379C18.6179 176.791 18.6094 176.203 18.6094 175.614C18.6094 175.433 18.6094 175.251 18.6094 175.069C18.6094 174.827 18.8133 174.637 19.0428 174.637C19.2807 174.637 19.4677 174.836 19.4677 175.078C19.4677 175.26 19.4677 175.441 19.4677 175.614C19.4677 176.194 19.4762 176.782 19.4932 177.362C19.5017 177.604 19.3147 177.803 19.0768 177.812C19.0683 177.803 19.0683 177.803 19.0598 177.803ZM19.1023 173.201C19.0938 173.201 19.0853 173.201 19.0853 173.201C18.8473 173.192 18.6689 172.984 18.6774 172.751C18.7114 171.99 18.7538 171.211 18.8133 170.441C18.8303 170.199 19.0343 170.026 19.2722 170.043C19.5102 170.06 19.6801 170.268 19.6631 170.51C19.6036 171.271 19.5612 172.033 19.5272 172.794C19.5187 173.019 19.3232 173.201 19.1023 173.201ZM19.4507 168.615C19.4337 168.615 19.4167 168.615 19.3997 168.615C19.1617 168.59 19.0003 168.373 19.0258 168.14C19.1108 167.378 19.2042 166.608 19.3147 165.847C19.3487 165.613 19.5612 165.449 19.7991 165.475C20.0286 165.51 20.19 165.726 20.156 165.968C20.0456 166.721 19.9521 167.491 19.8671 168.235C19.8501 168.451 19.6631 168.615 19.4507 168.615ZM20.0965 164.065C20.071 164.065 20.0455 164.065 20.0201 164.056C19.7906 164.013 19.6376 163.788 19.6716 163.554C19.7991 162.802 19.9521 162.032 20.105 161.279C20.156 161.045 20.3855 160.898 20.6064 160.942C20.8359 160.994 20.9803 161.219 20.9378 161.452C20.7849 162.196 20.6404 162.949 20.5129 163.693C20.4789 163.918 20.3005 164.065 20.0965 164.065ZM21.0228 159.566C20.9888 159.566 20.9548 159.566 20.9209 159.557C20.6914 159.497 20.5554 159.263 20.6064 159.03C20.7849 158.277 20.9803 157.524 21.1758 156.789C21.2353 156.555 21.4732 156.426 21.7027 156.486C21.9321 156.547 22.0596 156.789 22.0001 157.023C21.8047 157.749 21.6177 158.493 21.4392 159.237C21.3882 159.436 21.2183 159.566 21.0228 159.566ZM22.2296 155.137C22.1871 155.137 22.1446 155.128 22.1021 155.119C21.8811 155.05 21.7537 154.808 21.8216 154.574C22.0426 153.839 22.2805 153.103 22.527 152.377C22.6035 152.152 22.8499 152.031 23.0709 152.109C23.2918 152.186 23.4108 152.437 23.3343 152.662C23.0879 153.38 22.8584 154.107 22.6375 154.834C22.578 155.015 22.408 155.137 22.2296 155.137ZM23.7082 150.794C23.6572 150.794 23.6062 150.785 23.5553 150.768C23.3343 150.681 23.2238 150.43 23.3088 150.205C23.5808 149.479 23.8697 148.76 24.1586 148.06C24.2521 147.843 24.4985 147.74 24.7195 147.826C24.9404 147.921 25.0339 148.172 24.9489 148.397C24.66 149.089 24.3796 149.799 24.1076 150.517C24.0396 150.69 23.8782 150.794 23.7082 150.794ZM25.4673 146.563C25.4078 146.563 25.3484 146.546 25.2889 146.52C25.0764 146.416 24.9829 146.156 25.0849 145.94C25.4078 145.239 25.7393 144.539 26.0877 143.855C26.1982 143.639 26.4531 143.561 26.6571 143.665C26.8695 143.777 26.946 144.037 26.844 144.244C26.5041 144.919 26.1727 145.611 25.8582 146.295C25.7818 146.468 25.6288 146.563 25.4673 146.563ZM62.9949 144.34C62.5869 144.34 62.1705 144.305 61.7711 144.244C61.5417 144.21 61.3802 143.985 61.4142 143.751C61.4482 143.518 61.6691 143.353 61.8986 143.388C62.5869 143.5 63.3093 143.5 64.0231 143.397C64.2526 143.362 64.4735 143.526 64.5075 143.76C64.5415 143.994 64.38 144.218 64.1506 144.253C63.7597 144.314 63.3773 144.34 62.9949 144.34ZM66.2496 143.63C66.0882 143.63 65.9267 143.535 65.8587 143.362C65.7652 143.146 65.8672 142.886 66.0797 142.791C66.717 142.514 67.3544 142.151 67.9662 141.71C68.1617 141.571 68.4251 141.614 68.5611 141.813C68.6971 142.012 68.6546 142.281 68.4591 142.419C67.7963 142.895 67.1079 143.284 66.4196 143.587C66.3601 143.622 66.3091 143.63 66.2496 143.63ZM59.6976 143.552C59.6381 143.552 59.5701 143.535 59.5106 143.509C58.8308 143.172 58.1679 142.722 57.5476 142.185C57.3691 142.03 57.3436 141.753 57.4966 141.571C57.6496 141.389 57.9215 141.364 58.1 141.519C58.6693 142.012 59.2727 142.419 59.8846 142.73C60.097 142.834 60.182 143.094 60.08 143.31C60.0035 143.466 59.8506 143.552 59.6976 143.552ZM27.5324 142.462C27.4644 142.462 27.3879 142.445 27.3284 142.41C27.1244 142.289 27.048 142.03 27.1669 141.822C27.5409 141.147 27.9233 140.472 28.3227 139.824C28.4417 139.616 28.7051 139.555 28.909 139.676C29.113 139.798 29.1725 140.066 29.0535 140.273C28.6626 140.914 28.2802 141.58 27.9148 142.246C27.8213 142.384 27.6768 142.462 27.5324 142.462ZM69.9378 141.026C69.8273 141.026 69.7168 140.983 69.6403 140.896C69.4704 140.723 69.4704 140.455 69.6403 140.282C70.1417 139.763 70.6261 139.192 71.0595 138.578C71.1955 138.387 71.4674 138.344 71.6544 138.483C71.8414 138.621 71.8838 138.898 71.7479 139.088C71.289 139.737 70.7791 140.343 70.2437 140.888C70.1587 140.983 70.0483 141.026 69.9378 141.026ZM56.2474 140.637C56.1199 140.637 56.0009 140.585 55.9159 140.472C55.644 140.126 55.3721 139.763 55.1171 139.374C54.9387 139.106 54.7602 138.82 54.5902 138.543C54.4713 138.336 54.5308 138.067 54.7347 137.946C54.9387 137.825 55.1936 137.886 55.3211 138.093C55.4825 138.361 55.6525 138.63 55.8225 138.889C56.0689 139.253 56.3239 139.607 56.5788 139.927C56.7233 140.118 56.6978 140.386 56.5108 140.542C56.4428 140.602 56.3409 140.637 56.2474 140.637ZM29.8948 138.543C29.8098 138.543 29.7334 138.517 29.6569 138.465C29.4614 138.336 29.4104 138.059 29.5379 137.86C29.9628 137.211 30.4047 136.571 30.8466 135.965C30.9826 135.775 31.2545 135.731 31.4415 135.87C31.6284 136.008 31.6709 136.285 31.535 136.475C31.1016 137.081 30.6681 137.704 30.2432 138.344C30.1668 138.474 30.0308 138.543 29.8948 138.543ZM72.5722 137.315C72.5127 137.315 72.4447 137.297 72.3852 137.271C72.1728 137.168 72.0878 136.908 72.1898 136.692C72.5042 136.026 72.7507 135.333 72.9206 134.615C72.9716 134.382 73.2095 134.243 73.439 134.295C73.6684 134.356 73.8044 134.589 73.7534 134.823C73.5665 135.593 73.303 136.354 72.9631 137.072C72.8781 137.219 72.7336 137.315 72.5722 137.315ZM53.9104 136.718C53.7489 136.718 53.596 136.623 53.5195 136.467C53.2051 135.757 52.9246 135.022 52.6782 134.278C52.6017 134.053 52.7292 133.802 52.9501 133.733C53.1711 133.655 53.4175 133.785 53.4855 134.01C53.7149 134.719 53.9869 135.429 54.2928 136.103C54.3863 136.32 54.2928 136.579 54.0804 136.674C54.0294 136.7 53.9699 136.718 53.9104 136.718ZM32.5802 134.832C32.4867 134.832 32.3933 134.797 32.3083 134.737C32.1213 134.589 32.0958 134.313 32.2488 134.122C32.7247 133.517 33.2261 132.928 33.7275 132.357C33.8804 132.176 34.1524 132.167 34.3308 132.323C34.5093 132.479 34.5178 132.755 34.3648 132.937C33.8719 133.499 33.3875 134.079 32.9116 134.676C32.8267 134.78 32.7077 134.832 32.5802 134.832ZM73.6259 132.876H73.6175C73.3795 132.868 73.1925 132.678 73.201 132.435C73.201 132.366 73.201 132.297 73.201 132.228C73.201 131.561 73.1331 130.895 73.0056 130.246C72.9546 130.013 73.1076 129.779 73.337 129.736C73.5665 129.684 73.7959 129.84 73.8384 130.073C73.9829 130.783 74.0508 131.51 74.0508 132.236C74.0508 132.314 74.0508 132.383 74.0508 132.461C74.0424 132.686 73.8554 132.876 73.6259 132.876ZM52.4997 132.357C52.3043 132.357 52.1258 132.219 52.0833 132.011C51.9218 131.25 51.8029 130.471 51.7264 129.693C51.7009 129.451 51.8709 129.243 52.1088 129.217C52.3468 129.191 52.5507 129.364 52.5762 129.606C52.6527 130.35 52.7717 131.103 52.9246 131.83C52.9756 132.063 52.8226 132.297 52.5932 132.34C52.5592 132.357 52.5337 132.357 52.4997 132.357ZM35.5885 131.406C35.4781 131.406 35.3676 131.362 35.2911 131.285C35.1211 131.12 35.1211 130.843 35.2911 130.67C35.8265 130.117 36.3789 129.58 36.9397 129.061C37.1097 128.897 37.3816 128.914 37.5431 129.087C37.7046 129.26 37.6876 129.537 37.5176 129.701C36.9737 130.203 36.4298 130.74 35.903 131.276C35.8095 131.362 35.699 131.406 35.5885 131.406ZM72.7082 128.412C72.5467 128.412 72.3937 128.317 72.3257 128.161C72.1983 127.876 72.0538 127.599 71.8923 127.331C71.6799 126.968 71.4504 126.613 71.1955 126.275C71.051 126.085 71.0935 125.808 71.2805 125.67C71.4674 125.523 71.7394 125.566 71.8753 125.756C72.1388 126.12 72.3937 126.5 72.6232 126.89C72.7931 127.184 72.9546 127.487 73.0906 127.798C73.1926 128.014 73.0991 128.274 72.8866 128.378C72.8356 128.404 72.7676 128.412 72.7082 128.412ZM38.9368 128.317C38.8093 128.317 38.6903 128.265 38.6054 128.153C38.4609 127.962 38.4864 127.694 38.6648 127.539C39.2342 127.063 39.8291 126.604 40.4154 126.172L40.4749 126.128C40.6619 125.99 40.9338 126.033 41.0698 126.224C41.2058 126.414 41.1633 126.691 40.9763 126.829L40.9168 126.872C40.339 127.296 39.7611 127.746 39.2087 128.213C39.1237 128.283 39.0303 128.317 38.9368 128.317ZM52.0323 127.789C51.7944 127.789 51.6074 127.599 51.6074 127.357C51.6074 126.587 51.6499 125.8 51.7264 125.021C51.7519 124.779 51.9643 124.606 52.1938 124.632C52.4317 124.658 52.6017 124.865 52.5762 125.108C52.4997 125.86 52.4657 126.613 52.4572 127.357C52.4572 127.599 52.2703 127.789 52.0323 127.789ZM42.5995 125.627C42.455 125.627 42.319 125.557 42.2425 125.428C42.1151 125.229 42.1746 124.96 42.3785 124.831C43.0244 124.415 43.6872 124.017 44.3501 123.654C44.554 123.542 44.8175 123.619 44.9279 123.827C45.0384 124.035 44.9619 124.303 44.758 124.415C44.1121 124.77 43.4663 125.159 42.8374 125.566C42.7524 125.609 42.6759 125.627 42.5995 125.627ZM70.0313 124.753C69.9293 124.753 69.8273 124.718 69.7423 124.64C69.2154 124.147 68.6376 123.689 68.0172 123.282C67.8218 123.152 67.7623 122.884 67.8897 122.685C68.0172 122.486 68.2807 122.426 68.4761 122.555C69.139 122.988 69.7593 123.481 70.3202 124.009C70.4902 124.173 70.5072 124.45 70.3457 124.623C70.2607 124.701 70.1417 124.753 70.0313 124.753ZM46.5596 123.429C46.3981 123.429 46.2451 123.334 46.1686 123.178C46.0667 122.962 46.1602 122.702 46.3811 122.599C47.0779 122.27 47.7833 121.967 48.4886 121.699C48.7096 121.612 48.956 121.725 49.041 121.95C49.126 122.175 49.0155 122.426 48.7946 122.512C48.1062 122.78 47.4179 123.074 46.738 123.395C46.687 123.421 46.619 123.429 46.5596 123.429ZM52.4912 123.222C52.4657 123.222 52.4317 123.222 52.4062 123.213C52.1768 123.161 52.0238 122.936 52.0748 122.702C52.1598 122.261 52.2618 121.82 52.3807 121.379C51.8879 121.5 51.395 121.638 50.9021 121.785C50.6811 121.855 50.4432 121.725 50.3752 121.491C50.3072 121.258 50.4347 121.024 50.6641 120.955C51.3185 120.756 51.9898 120.583 52.6527 120.427C52.7207 120.202 52.9586 120.081 53.1796 120.15C53.409 120.219 53.528 120.462 53.46 120.695C53.2391 121.422 53.0606 122.157 52.9161 122.884C52.8736 123.083 52.6952 123.222 52.4912 123.222ZM66.2581 122.244C66.1986 122.244 66.1391 122.235 66.0797 122.209C65.4253 121.907 64.737 121.647 64.0146 121.431C63.7852 121.361 63.6577 121.119 63.7257 120.894C63.7937 120.661 64.0316 120.531 64.2526 120.6C65.0089 120.825 65.7397 121.102 66.4196 121.413C66.632 121.509 66.734 121.768 66.632 121.984C66.581 122.149 66.4281 122.244 66.2581 122.244ZM61.9496 120.938C61.9241 120.938 61.8986 120.938 61.8816 120.929C61.1678 120.808 60.4284 120.721 59.6806 120.678C59.4427 120.661 59.2642 120.462 59.2812 120.219C59.2982 119.977 59.4936 119.796 59.7316 119.813C60.5049 119.856 61.2782 119.951 62.0176 120.072C62.247 120.116 62.4085 120.341 62.366 120.574C62.332 120.782 62.1535 120.938 61.9496 120.938ZM55.1936 120.842C54.9812 120.842 54.8027 120.687 54.7687 120.462C54.7347 120.228 54.9047 120.003 55.1341 119.977C55.899 119.873 56.6723 119.813 57.4201 119.778C57.6581 119.77 57.8535 119.96 57.862 120.194C57.8705 120.436 57.6836 120.635 57.4541 120.643C56.7318 120.669 55.9839 120.739 55.2446 120.834C55.2361 120.842 55.2106 120.842 55.1936 120.842ZM53.8084 118.835C53.7574 118.835 53.6979 118.827 53.647 118.801C53.426 118.714 53.324 118.455 53.409 118.238C53.6894 117.529 54.0124 116.811 54.3608 116.119C54.4713 115.902 54.7262 115.816 54.9302 115.928C55.1426 116.041 55.2276 116.3 55.1171 116.508C54.7772 117.183 54.4713 117.875 54.1908 118.567C54.1399 118.731 53.9784 118.835 53.8084 118.835ZM55.848 114.734C55.7715 114.734 55.695 114.717 55.627 114.674C55.4231 114.553 55.3636 114.285 55.4825 114.077C55.8735 113.428 56.2984 112.771 56.7403 112.13C56.8762 111.931 57.1397 111.888 57.3351 112.027C57.5306 112.165 57.5731 112.433 57.4371 112.632C57.0037 113.255 56.5873 113.895 56.2134 114.527C56.1284 114.665 55.9924 114.734 55.848 114.734ZM58.4739 111.006C58.3719 111.006 58.2784 110.971 58.1934 110.902C58.015 110.746 57.998 110.469 58.1509 110.288C58.6523 109.691 59.1877 109.12 59.7401 108.592C59.91 108.428 60.182 108.436 60.3435 108.609C60.5049 108.782 60.4964 109.059 60.3265 109.224C59.7996 109.734 59.2812 110.279 58.8053 110.85C58.7118 110.954 58.5928 111.006 58.4739 111.006ZM61.7541 107.865C61.6267 107.865 61.4992 107.805 61.4142 107.692C61.2697 107.502 61.3122 107.225 61.4992 107.087C62.1026 106.628 62.7484 106.187 63.4113 105.78C63.6152 105.659 63.8787 105.728 63.9976 105.927C64.1166 106.135 64.0486 106.403 63.8532 106.524C63.2158 106.914 62.5954 107.329 62.0176 107.779C61.9326 107.839 61.8391 107.865 61.7541 107.865ZM65.6123 105.512C65.4508 105.512 65.2978 105.417 65.2299 105.261C65.1279 105.045 65.2213 104.785 65.4338 104.682C66.1051 104.361 66.7935 104.067 67.5413 103.773C67.7623 103.687 68.0087 103.799 68.0937 104.024C68.1787 104.249 68.0682 104.5 67.8473 104.586C67.1164 104.863 66.4451 105.157 65.7992 105.469C65.7397 105.495 65.6802 105.512 65.6123 105.512ZM69.8358 103.877C69.6573 103.877 69.4874 103.756 69.4279 103.574C69.3599 103.349 69.4874 103.098 69.7083 103.029C70.3542 102.821 71.051 102.623 71.8923 102.389C72.1218 102.328 72.3512 102.458 72.4192 102.692C72.4872 102.925 72.3512 103.159 72.1218 103.228C71.289 103.462 70.6091 103.661 69.9633 103.86C69.9123 103.868 69.8698 103.877 69.8358 103.877ZM74.1868 102.648C73.9999 102.648 73.8214 102.519 73.7789 102.328C73.7194 102.095 73.8554 101.861 74.0848 101.801C74.7817 101.61 75.5295 101.411 76.2519 101.195C76.4813 101.126 76.7107 101.256 76.7787 101.489C76.8467 101.723 76.7193 101.956 76.4898 102.026C75.759 102.242 75.0026 102.449 74.2973 102.64C74.2548 102.64 74.2208 102.648 74.1868 102.648ZM78.5038 101.316C78.3339 101.316 78.1724 101.212 78.1044 101.039C78.0195 100.814 78.1299 100.563 78.3509 100.477C79.1072 100.191 79.7616 99.8887 80.3564 99.5599C80.5604 99.4474 80.8238 99.5253 80.9343 99.7329C81.0448 99.9406 80.9683 100.209 80.7643 100.321C80.1355 100.667 79.4471 100.987 78.6568 101.29C78.6058 101.307 78.5548 101.316 78.5038 101.316ZM82.43 99.0927C82.311 99.0927 82.192 99.0408 82.107 98.937C81.9541 98.7553 81.9796 98.4785 82.158 98.3228C82.7189 97.8383 83.1863 97.3192 83.6027 96.7222C83.7387 96.5233 84.0021 96.48 84.1976 96.6184C84.393 96.7569 84.4355 97.0251 84.2995 97.224C83.8491 97.8729 83.3138 98.4612 82.7104 98.9889C82.6254 99.0581 82.5234 99.0927 82.43 99.0927ZM85.0134 95.3986C84.9624 95.3986 84.9029 95.3899 84.8519 95.364C84.631 95.2688 84.529 95.0179 84.6225 94.8016C84.8944 94.1355 85.1578 93.4347 85.4213 92.6734C85.4978 92.4484 85.7442 92.3273 85.9652 92.4138C86.1861 92.4917 86.3051 92.7426 86.2201 92.9675C85.9482 93.7462 85.6847 94.4556 85.4043 95.1304C85.3448 95.2948 85.1833 95.3986 85.0134 95.3986ZM86.5515 91.0729C86.509 91.0729 86.4665 91.0642 86.4241 91.0556C86.2031 90.9864 86.0756 90.7355 86.1521 90.5105C86.3816 89.7838 86.6025 89.0571 86.8235 88.3217C86.8915 88.0968 87.1294 87.967 87.3588 88.0362C87.5798 88.1054 87.7073 88.3477 87.6393 88.5813C87.4183 89.3166 87.1974 90.052 86.9679 90.7874C86.8914 90.9604 86.73 91.0729 86.5515 91.0729ZM87.8772 86.678C87.8347 86.678 87.7923 86.6693 87.7498 86.6607C87.5203 86.5914 87.4013 86.3492 87.4693 86.1156C87.6903 85.3803 87.9112 84.6449 88.1407 83.9095C88.2087 83.6846 88.4551 83.5548 88.676 83.6327C88.897 83.7019 89.0245 83.9528 88.948 84.1777C88.7185 84.9044 88.4976 85.6398 88.2766 86.3665C88.2257 86.5568 88.0557 86.678 87.8772 86.678ZM89.2624 82.3004C89.2114 82.3004 89.1689 82.2917 89.118 82.2744C88.897 82.1965 88.778 81.9456 88.863 81.7207C89.1349 80.9421 89.3984 80.2327 89.6703 79.5578C89.7553 79.3329 90.0103 79.2291 90.2227 79.3243C90.4437 79.4108 90.5456 79.6703 90.4521 79.8866C90.1802 80.5528 89.9253 81.2535 89.6533 82.0149C89.6023 82.1965 89.4409 82.3004 89.2624 82.3004ZM90.979 78.0612C90.9195 78.0612 90.8516 78.0439 90.7921 78.0179C90.5796 77.9141 90.4946 77.6545 90.5966 77.4383C90.9365 76.7202 91.2935 76.0281 91.6674 75.3792C91.7863 75.1716 92.0498 75.1024 92.2537 75.2235C92.4577 75.3446 92.5257 75.6128 92.4067 75.8204C92.0498 76.452 91.6929 77.1268 91.3615 77.8189C91.2935 77.966 91.1405 78.0612 90.979 78.0612ZM93.248 74.0902C93.163 74.0902 93.0781 74.0642 93.0016 74.0123C92.8061 73.8739 92.7636 73.6057 92.8996 73.4067C93.3415 72.7665 93.8089 72.1436 94.3018 71.5553C94.4548 71.3736 94.7267 71.3477 94.9051 71.5034C95.0836 71.6591 95.1091 71.936 94.9561 72.1176C94.4802 72.6886 94.0298 73.2856 93.6049 73.9085C93.52 74.021 93.384 74.0902 93.248 74.0902ZM96.1629 70.5863C96.0524 70.5863 95.9419 70.5431 95.8569 70.4566C95.6955 70.2835 95.6955 70.0067 95.8654 69.8423C96.2648 69.4444 96.6897 69.0464 97.1231 68.6657C97.2676 68.536 97.4206 68.4062 97.5735 68.2851C97.752 68.1293 98.0239 68.1553 98.1769 68.3456C98.3299 68.5273 98.3044 68.8041 98.1174 68.9599C97.973 69.081 97.8285 69.2108 97.684 69.3319C97.2676 69.6952 96.8512 70.0846 96.4688 70.4739C96.3753 70.5431 96.2733 70.5863 96.1629 70.5863ZM99.6386 67.6535C99.5026 67.6535 99.3751 67.593 99.2902 67.4718C99.1542 67.2729 99.1967 67.0047 99.3921 66.8662C100.021 66.4164 100.667 65.9924 101.321 65.6031C101.525 65.482 101.789 65.5512 101.908 65.7589C102.027 65.9665 101.959 66.2347 101.755 66.3558C101.126 66.7365 100.497 67.1517 99.885 67.5843C99.8085 67.6276 99.7235 67.6535 99.6386 67.6535ZM103.522 65.3263C103.361 65.3263 103.208 65.2398 103.14 65.084C103.038 64.8678 103.123 64.6082 103.335 64.5044C104.032 64.167 104.737 63.8555 105.443 63.5873C105.664 63.5008 105.91 63.6133 105.995 63.8382C106.08 64.0632 105.97 64.3141 105.749 64.4006C105.069 64.6601 104.381 64.9629 103.709 65.2917C103.65 65.309 103.59 65.3263 103.522 65.3263ZM107.746 63.7085C107.559 63.7085 107.389 63.5787 107.338 63.3884C107.278 63.1548 107.406 62.9212 107.635 62.852C108.375 62.6443 109.131 62.4713 109.879 62.3415C110.108 62.2983 110.329 62.4627 110.372 62.6962C110.414 62.9298 110.253 63.1548 110.023 63.198C109.301 63.3278 108.579 63.4922 107.856 63.6912C107.822 63.7085 107.788 63.7085 107.746 63.7085ZM112.19 62.9385C111.969 62.9385 111.782 62.7655 111.765 62.5319C111.748 62.2896 111.927 62.082 112.165 62.0647C112.93 62.0128 113.703 61.9955 114.468 62.0214C114.706 62.0301 114.884 62.2291 114.876 62.4713C114.867 62.7136 114.672 62.8952 114.434 62.8866C113.703 62.8606 112.955 62.8779 112.224 62.9298C112.216 62.9385 112.207 62.9385 112.19 62.9385Z" fill="url(#paint15_linear)"/>
<path d="M117.892 63.3028C117.866 63.3028 117.832 63.3028 117.807 63.2942C117.441 63.2163 117.076 63.1557 116.711 63.1038C116.481 63.0692 116.32 62.8528 116.354 62.6105C116.388 62.3768 116.609 62.2124 116.838 62.247C117.22 62.299 117.603 62.3682 117.977 62.4461C118.206 62.4894 118.359 62.723 118.308 62.9567C118.266 63.1644 118.087 63.3028 117.892 63.3028Z" fill="url(#paint16_linear)"/>
<path d="M120.031 67.4723C120.031 67.4723 121.705 77.7069 114.456 79.7659C107.207 81.8249 99.3978 82.0758 97.6387 85.2076C97.6387 85.2076 98.1571 64.9287 117.966 64.4702L120.031 67.4723Z" fill="url(#paint17_linear)"/>
<path d="M141.362 65.0574C141.362 65.0574 146.359 73.8817 144.574 76.8232C142.874 79.6175 123.626 91.7726 121.747 92.9492C121.663 93.0011 121.552 92.9752 121.501 92.8973C121.017 92.2225 120.881 91.3574 121.127 90.5615C122.325 86.7203 126.005 75.2832 128.215 72.1861C130.866 68.44 141.362 65.0574 141.362 65.0574Z" fill="#7D97F4"/>
<path d="M127.63 45.9556C127.63 45.9556 120.874 38.4376 117.585 39.2854C114.458 40.09 97.2577 55.0913 95.5836 56.5534C95.5071 56.6226 95.4986 56.7264 95.5581 56.8129C96.0425 57.4877 96.8073 57.8857 97.6316 57.8857C101.592 57.8857 113.413 57.7732 116.973 56.5707C121.282 55.1173 127.63 45.9556 127.63 45.9556Z" fill="#7D97F4"/>
<path d="M168.403 44.7451C165.565 48.768 161.868 52.8342 157.066 56.4332C142.161 67.6021 129.311 73.1909 125.615 74.679C124.943 74.9472 124.187 74.8174 123.635 74.3502C119.275 70.6647 115.995 66.166 113.785 60.8713C113.369 59.8764 113.539 58.7258 114.219 57.8866C117.168 54.2703 126.133 43.9405 140.453 33.3339C145.237 29.7955 150.123 27.4423 154.721 25.9023C162.208 31.8891 166.329 40.0041 168.403 44.7451Z" fill="#3040C2"/>
<path d="M154.723 25.8933C164.87 22.4846 173.563 23.021 176.461 23.3411C177.031 23.4017 177.413 23.9467 177.303 24.5091C176.725 27.4073 174.609 35.9549 168.405 44.7362C166.332 40.0038 162.21 31.8888 154.723 25.8933Z" fill="url(#paint18_linear)"/>
<path d="M144.253 36.5081C140.387 39.389 139.715 45.1508 142.749 49.3814C145.792 53.6119 151.383 54.702 155.258 51.8125C159.125 48.9315 159.796 43.1697 156.763 38.9391C153.72 34.7172 148.12 33.6271 144.253 36.5081Z" fill="#91B3FA"/>
<path d="M145.418 37.7016C142.333 39.9941 141.798 44.588 144.22 47.962C146.642 51.3273 151.103 52.2011 154.188 49.8998C157.273 47.6073 157.808 43.0134 155.386 39.6394C152.956 36.2741 148.494 35.4003 145.418 37.7016Z" fill="url(#paint19_linear)"/>
<path d="M132.042 49.59C129.484 51.4933 129.042 55.2999 131.047 58.0943C133.053 60.8887 136.758 61.6067 139.307 59.7034C141.865 57.8001 142.307 53.9935 140.301 51.1992C138.296 48.4048 134.599 47.6867 132.042 49.59Z" fill="#91B3FA"/>
<path d="M132.806 50.3854C130.766 51.8994 130.418 54.9361 132.015 57.1595C133.613 59.3829 136.562 59.9625 138.601 58.4399C140.641 56.9259 140.989 53.8892 139.392 51.6658C137.794 49.4424 134.845 48.8628 132.806 50.3854Z" fill="url(#paint20_linear)"/>
<path d="M97.7338 231.918C97.7338 231.918 97.2579 234.643 97.0284 237.342C96.935 238.397 97.7338 239.314 98.779 239.358C102.314 239.505 109.86 239.799 112.571 239.678C112.979 239.66 113.243 239.236 113.098 238.847C112.971 238.527 112.724 238.259 112.418 238.12L99.9432 232.281L97.7338 231.918Z" fill="url(#paint21_linear)"/>
<path d="M97.3433 230.318L97.7257 233.58C97.7257 233.58 99.9097 234.618 101.405 233.45L100.496 229.816L97.3433 230.318Z" fill="url(#paint22_linear)"/>
<path d="M97.63 168.988C97.4686 169.836 96.7462 211.502 101.123 230.172C101.191 230.474 101.046 230.786 100.757 230.907C100.086 231.184 98.7688 231.59 97.1966 231.642C96.7122 231.66 96.2703 231.34 96.1344 230.855C94.8851 226.521 88.894 204.823 88.1122 184.094C87.2369 160.925 88.1122 183.306 88.1122 183.306L88.6221 168.988H97.63Z" fill="url(#paint23_linear)"/>
<path d="M83.3802 233.346C83.3802 233.346 82.6239 234.722 81.9015 238.382C81.774 239.039 82.2244 239.671 82.8788 239.74C84.0431 239.853 85.8363 240.008 87.281 240C87.9438 239.991 88.4622 239.411 88.3773 238.737C88.2158 237.404 87.7229 235.207 86.1847 233.502L83.3802 233.346Z" fill="url(#paint24_linear)"/>
<path d="M82.7158 229.151L83.6081 234.083C83.6081 234.083 84.4834 234.749 86.2255 234.264L85.8006 228.952L82.7158 229.151Z" fill="url(#paint25_linear)"/>
<path d="M80.3201 170.27C76.7424 192.253 81.0935 224.591 82.5636 230.924C82.6571 231.313 82.963 231.608 83.3455 231.677C83.9998 231.789 85.0791 231.876 86.1413 231.564C86.5067 231.452 86.7617 231.123 86.7787 230.734C86.9741 225.612 86.6172 194.191 89.957 181.776C90.1269 181.144 90.5008 180.599 91.0277 180.219L97.4948 175.538L97.9876 167.968L80.3201 170.27Z" fill="url(#paint26_linear)"/>
<path d="M103.112 128.62C92.3872 128.438 80.5578 131.483 80.5578 131.483C77.3625 150.465 79.9969 172.361 79.9969 172.361C88.2996 174.576 97.6561 171.003 97.6561 171.003C99.0328 163.07 105.474 140.74 105.474 140.74C110.709 140.074 115.026 138.543 118.579 136.51C115.868 133.309 114.593 129.243 114.032 126.837C110.259 128.031 106.418 128.672 103.112 128.62Z" fill="#3040C2"/>
<path d="M134.785 112.537C133.731 111.24 132.397 111.854 132.397 111.854C130.816 118.637 122.547 124.139 114.049 126.83C114.602 129.235 115.885 133.31 118.596 136.502C132.694 128.439 134.785 112.537 134.785 112.537Z" fill="url(#paint27_linear)"/>
<path d="M134.53 112.876C134.641 113.231 133.366 113.776 132.61 112.314C132.584 111.613 132.168 108.62 132.576 108.049C134.76 105.012 139 101.214 139 101.214C139.714 101.932 139.128 102.642 139.128 102.642L137.071 104.822C137.505 105.609 138.023 106.284 138.27 107.236C138.457 107.962 138.346 108.732 137.981 109.39C137.624 110.047 137.131 110.912 136.663 111.587C135.78 112.859 134.53 112.876 134.53 112.876Z" fill="url(#paint28_linear)"/>
<path d="M136.173 106.231L134.303 107.849L133.717 109.458L135.391 111.344C135.391 111.344 135.952 108.152 136.368 107.46C136.776 106.768 136.564 106.439 136.173 106.231Z" fill="url(#paint29_linear)"/>
<path d="M84.6713 142.056L80.5583 131.484C80.5583 131.484 70.5476 138.414 68.8989 147.195C70.794 147.333 74.2357 147.835 77.601 149.574C78.3488 145.421 84.6713 142.056 84.6713 142.056Z" fill="#3040C2"/>
<path d="M93.4248 151.997C93.4248 151.997 82.1817 158.468 78.3916 152.94C77.6012 151.79 77.4143 150.657 77.6097 149.567C74.236 147.836 70.7942 147.335 68.9076 147.188C68.4148 149.835 68.6697 152.655 70.1994 155.492C76.8449 167.863 94.9204 154.809 94.9204 154.809L93.4248 151.997Z" fill="url(#paint30_linear)"/>
<path d="M92.074 160.181L98.2097 138.362C98.2777 138.111 98.4901 137.929 98.7366 137.903C99.8498 137.773 103.071 137.401 106.793 137.081C111.271 136.692 116.472 136.38 119.582 136.649C120.024 136.683 120.288 137.159 120.092 137.566C118.325 141.208 111.05 156.019 107.413 160.873C107.294 161.037 107.107 161.124 106.903 161.124L92.6689 160.985C92.261 160.994 91.9635 160.587 92.074 160.181Z" fill="url(#paint31_linear)"/>
<path d="M107.43 135.195L111.883 134.443C112.121 134.399 112.316 134.633 112.239 134.867L111.798 136.225C111.755 136.346 111.662 136.433 111.534 136.441L107.251 137.021C107.03 137.047 106.843 136.848 106.894 136.623L107.166 135.438C107.2 135.308 107.302 135.213 107.43 135.195Z" fill="#91B3FA"/>
<path d="M104.099 139.029L104.464 137.082C104.498 136.883 104.66 136.736 104.855 136.719L113.838 135.793C114.143 135.759 114.381 136.044 114.313 136.347L113.744 138.769C113.702 138.959 113.532 139.106 113.336 139.115L104.558 139.565C104.269 139.574 104.048 139.314 104.099 139.029Z" fill="#91B3FA"/>
<path d="M93.5624 154.912C93.5624 154.912 92.704 151.331 93.0525 150.068C93.4009 148.796 94.0638 147.169 96.2903 147.533C98.5168 147.896 101.143 148.848 101.143 148.848C101.143 148.848 101.007 150.5 99.3157 149.964L100.361 150.794C100.361 150.794 100.208 152.118 98.7803 151.409L99.7576 152.507C99.7576 152.507 99.1457 153.597 98.0919 152.897C97.0466 152.196 96.5452 155.345 93.5624 154.912Z" fill="url(#paint32_linear)"/>
<path d="M92.2524 119.762L88.8446 129.806C88.7851 129.971 88.8531 130.161 89.0061 130.239C89.9324 130.758 93.2892 132.272 97.3258 129.668C97.7422 129.4 98.0312 128.95 98.0992 128.448L99.2039 119.753H92.2524V119.762Z" fill="url(#paint33_linear)"/>
<path d="M99.68 110.462C99.68 110.462 103.428 117.643 102.943 120.541C102.459 123.439 97.8189 123.232 93.7654 120.878L90.9355 113.127L99.68 110.462Z" fill="url(#paint34_linear)"/>
<path d="M93.9442 117.063C94.1057 116.985 94.1736 116.786 94.0717 116.63C93.7742 116.163 93.2049 115.211 93.0264 114.381C93.0264 114.381 92.3551 113.94 94.743 113.36C97.1309 112.78 100.692 111.872 101.439 109.804C102.17 107.788 100.25 102.719 97.1904 106.759C97.0714 106.915 96.842 106.915 96.7315 106.759C96.2301 106.093 94.913 104.717 93.0859 105.548C91.3693 106.326 91.1824 107.607 91.2079 108.256C91.2164 108.446 91.0464 108.593 90.8679 108.558C90.0011 108.394 87.9276 108.247 86.9504 110.418C86.1516 112.209 86.6699 113.222 87.1458 113.715C87.2988 113.879 87.2308 114.139 87.0184 114.208C86.449 114.381 85.7182 114.874 85.7862 116.232C85.8881 118.11 87.9446 117.945 88.531 117.859C88.6245 117.841 88.7265 117.876 88.7859 117.954C89.2873 118.525 91.5563 120.93 94.0122 121.215C94.2246 121.241 94.3861 121.025 94.3181 120.817L93.2559 117.677C93.2049 117.53 93.2729 117.374 93.4173 117.305L93.9442 117.063Z" fill="url(#paint35_linear)"/>
<path d="M94.3688 117.514C94.3688 117.514 91.7005 115.653 91.5051 117.219C91.3096 118.785 93.9099 119.495 95.193 118.907L94.3688 117.514Z" fill="url(#paint36_linear)"/>
<defs>
<linearGradient id="paint0_linear" x1="264.417" y1="309.966" x2="50.678" y2="49.2202" gradientUnits="userSpaceOnUse">
<stop stop-color="#DAE3FE"/>
<stop offset="1" stop-color="#E9EFFD"/>
</linearGradient>
<linearGradient id="paint1_linear" x1="173.64" y1="192.646" x2="209.312" y2="151.975" gradientUnits="userSpaceOnUse">
<stop stop-color="#E1473D"/>
<stop offset="1" stop-color="#E9605A"/>
</linearGradient>
<linearGradient id="paint2_linear" x1="228.342" y1="121.22" x2="122.398" y2="278.436" gradientUnits="userSpaceOnUse">
<stop stop-color="#FF928E"/>
<stop offset="1" stop-color="#FE7062"/>
</linearGradient>
<linearGradient id="paint3_linear" x1="211.224" y1="180.108" x2="205.952" y2="204.79" gradientUnits="userSpaceOnUse">
<stop stop-color="#FF928E"/>
<stop offset="1" stop-color="#FE7062"/>
</linearGradient>
<linearGradient id="paint4_linear" x1="211.264" y1="191.287" x2="205.992" y2="215.97" gradientUnits="userSpaceOnUse">
<stop stop-color="#FF928E"/>
<stop offset="1" stop-color="#FE7062"/>
</linearGradient>
<linearGradient id="paint5_linear" x1="211.301" y1="202.467" x2="206.029" y2="227.149" gradientUnits="userSpaceOnUse">
<stop stop-color="#FF928E"/>
<stop offset="1" stop-color="#FE7062"/>
</linearGradient>
<linearGradient id="paint6_linear" x1="211.345" y1="213.357" x2="206.073" y2="238.039" gradientUnits="userSpaceOnUse">
<stop stop-color="#FF928E"/>
<stop offset="1" stop-color="#FE7062"/>
</linearGradient>
<linearGradient id="paint7_linear" x1="211.382" y1="224.246" x2="206.11" y2="248.928" gradientUnits="userSpaceOnUse">
<stop stop-color="#FF928E"/>
<stop offset="1" stop-color="#FE7062"/>
</linearGradient>
<linearGradient id="paint8_linear" x1="118.323" y1="204.406" x2="153.995" y2="163.734" gradientUnits="userSpaceOnUse">
<stop stop-color="#E1473D"/>
<stop offset="1" stop-color="#E9605A"/>
</linearGradient>
<linearGradient id="paint9_linear" x1="173.027" y1="132.978" x2="67.0825" y2="290.192" gradientUnits="userSpaceOnUse">
<stop stop-color="#FF928E"/>
<stop offset="1" stop-color="#FE7062"/>
</linearGradient>
<linearGradient id="paint10_linear" x1="155.907" y1="190.71" x2="150.635" y2="215.392" gradientUnits="userSpaceOnUse">
<stop stop-color="#FF928E"/>
<stop offset="1" stop-color="#FE7062"/>
</linearGradient>
<linearGradient id="paint11_linear" x1="155.947" y1="201.889" x2="150.675" y2="226.571" gradientUnits="userSpaceOnUse">
<stop stop-color="#FF928E"/>
<stop offset="1" stop-color="#FE7062"/>
</linearGradient>
<linearGradient id="paint12_linear" x1="155.987" y1="213.068" x2="150.715" y2="237.75" gradientUnits="userSpaceOnUse">
<stop stop-color="#FF928E"/>
<stop offset="1" stop-color="#FE7062"/>
</linearGradient>
<linearGradient id="paint13_linear" x1="156.028" y1="224.247" x2="150.756" y2="248.929" gradientUnits="userSpaceOnUse">
<stop stop-color="#FF928E"/>
<stop offset="1" stop-color="#FE7062"/>
</linearGradient>
<linearGradient id="paint14_linear" x1="32.3777" y1="213.545" x2="33.9598" y2="213.545" gradientUnits="userSpaceOnUse">
<stop stop-color="#E1473D"/>
<stop offset="1" stop-color="#E9605A"/>
</linearGradient>
<linearGradient id="paint15_linear" x1="18.6108" y1="136.875" x2="114.877" y2="136.875" gradientUnits="userSpaceOnUse">
<stop stop-color="#E1473D"/>
<stop offset="1" stop-color="#E9605A"/>
</linearGradient>
<linearGradient id="paint16_linear" x1="116.342" y1="62.7735" x2="118.313" y2="62.7735" gradientUnits="userSpaceOnUse">
<stop stop-color="#E1473D"/>
<stop offset="1" stop-color="#E9605A"/>
</linearGradient>
<linearGradient id="paint17_linear" x1="117.8" y1="43.2716" x2="110.161" y2="71.8448" gradientUnits="userSpaceOnUse">
<stop stop-color="#FF928E"/>
<stop offset="1" stop-color="#FE7062"/>
</linearGradient>
<linearGradient id="paint18_linear" x1="183.269" y1="-22.1264" x2="173.299" y2="4.66323" gradientUnits="userSpaceOnUse">
<stop stop-color="#FF928E"/>
<stop offset="1" stop-color="#FE7062"/>
</linearGradient>
<linearGradient id="paint19_linear" x1="154.181" y1="49.8979" x2="145.209" y2="37.8535" gradientUnits="userSpaceOnUse">
<stop stop-color="#09005D"/>
<stop offset="1" stop-color="#1A0F91"/>
</linearGradient>
<linearGradient id="paint20_linear" x1="138.601" y1="58.4395" x2="132.674" y2="50.4825" gradientUnits="userSpaceOnUse">
<stop stop-color="#09005D"/>
<stop offset="1" stop-color="#1A0F91"/>
</linearGradient>
<linearGradient id="paint21_linear" x1="112.176" y1="228.15" x2="65.5991" y2="277.918" gradientUnits="userSpaceOnUse">
<stop stop-color="#09005D"/>
<stop offset="1" stop-color="#1A0F91"/>
</linearGradient>
<linearGradient id="paint22_linear" x1="97.3457" y1="231.909" x2="101.404" y2="231.909" gradientUnits="userSpaceOnUse">
<stop stop-color="#FEBBBA"/>
<stop offset="1" stop-color="#FF928E"/>
</linearGradient>
<linearGradient id="paint23_linear" x1="87.7194" y1="200.315" x2="101.14" y2="200.315" gradientUnits="userSpaceOnUse">
<stop stop-color="#09005D"/>
<stop offset="1" stop-color="#1A0F91"/>
</linearGradient>
<linearGradient id="paint24_linear" x1="101.926" y1="218.557" x2="55.3438" y2="268.327" gradientUnits="userSpaceOnUse">
<stop stop-color="#09005D"/>
<stop offset="1" stop-color="#1A0F91"/>
</linearGradient>
<linearGradient id="paint25_linear" x1="82.716" y1="231.698" x2="86.2203" y2="231.698" gradientUnits="userSpaceOnUse">
<stop stop-color="#FEBBBA"/>
<stop offset="1" stop-color="#FF928E"/>
</linearGradient>
<linearGradient id="paint26_linear" x1="78.9396" y1="199.868" x2="97.9918" y2="199.868" gradientUnits="userSpaceOnUse">
<stop stop-color="#09005D"/>
<stop offset="1" stop-color="#1A0F91"/>
</linearGradient>
<linearGradient id="paint27_linear" x1="114.046" y1="124.112" x2="134.781" y2="124.112" gradientUnits="userSpaceOnUse">
<stop stop-color="#FEBBBA"/>
<stop offset="1" stop-color="#FF928E"/>
</linearGradient>
<linearGradient id="paint28_linear" x1="130.163" y1="120.575" x2="115.827" y2="152.615" gradientUnits="userSpaceOnUse">
<stop stop-color="#FEBBBA"/>
<stop offset="1" stop-color="#FF928E"/>
</linearGradient>
<linearGradient id="paint29_linear" x1="134.685" y1="109.841" x2="140.637" y2="100.851" gradientUnits="userSpaceOnUse">
<stop stop-color="#FEBBBA"/>
<stop offset="1" stop-color="#FF928E"/>
</linearGradient>
<linearGradient id="paint30_linear" x1="68.6734" y1="154.013" x2="94.9141" y2="154.013" gradientUnits="userSpaceOnUse">
<stop stop-color="#FEBBBA"/>
<stop offset="1" stop-color="#FF928E"/>
</linearGradient>
<linearGradient id="paint31_linear" x1="97.1688" y1="160.025" x2="120.196" y2="120.339" gradientUnits="userSpaceOnUse">
<stop stop-color="#4F52FF"/>
<stop offset="1" stop-color="#4042E2"/>
</linearGradient>
<linearGradient id="paint32_linear" x1="92.9674" y1="151.212" x2="101.143" y2="151.212" gradientUnits="userSpaceOnUse">
<stop stop-color="#FEBBBA"/>
<stop offset="1" stop-color="#FF928E"/>
</linearGradient>
<linearGradient id="paint33_linear" x1="88.8229" y1="125.454" x2="99.1977" y2="125.454" gradientUnits="userSpaceOnUse">
<stop stop-color="#FEBBBA"/>
<stop offset="1" stop-color="#FF928E"/>
</linearGradient>
<linearGradient id="paint34_linear" x1="101.665" y1="118.735" x2="90.1488" y2="111.835" gradientUnits="userSpaceOnUse">
<stop stop-color="#FEBBBA"/>
<stop offset="1" stop-color="#FF928E"/>
</linearGradient>
<linearGradient id="paint35_linear" x1="84.2209" y1="104.186" x2="99.1589" y2="115.775" gradientUnits="userSpaceOnUse">
<stop stop-color="#09005D"/>
<stop offset="1" stop-color="#1A0F91"/>
</linearGradient>
<linearGradient id="paint36_linear" x1="98.6692" y1="121.378" x2="88.3071" y2="115.17" gradientUnits="userSpaceOnUse">
<stop stop-color="#FEBBBA"/>
<stop offset="1" stop-color="#FF928E"/>
</linearGradient>
</defs>
</svg>
