<svg width="240" height="240" viewBox="0 0 240 240" fill="none" xmlns="http://www.w3.org/2000/svg">
<g clip-path="url(#clip0)">
<path d="M209.324 205.389C204.461 210.531 199.863 213.849 196.229 216.471C153.508 247.269 102.955 238.294 92.2063 236.1C76.3393 232.86 45.6716 226.603 23.5004 200.409C-10.0422 160.774 -4.82139 98.3231 21.1971 57.1031C25.9572 49.5603 51.0971 7.71462 102.196 1.0032C133.119 -3.05965 169.17 5.13462 195.274 27.1117C250.066 73.2345 246.159 166.423 209.324 205.389Z" fill="url(#paint0_linear)"/>
<path d="M125.561 1.53445C125.075 0.67731 126.193 -0.308402 127.165 0.103026C137.069 4.27731 161.987 18.163 167.123 53.7087C173.563 98.3058 188.398 110.923 203.975 116.691C203.975 116.691 185.088 117.369 169.417 104.76C130.927 73.7915 134.143 16.7659 125.561 1.53445Z" fill="#91B3FA"/>
<path d="M135.543 13.1231C137.932 17.5974 140.218 22.1146 142.3 26.7174C144.415 31.3031 146.369 35.966 148.152 40.6803C149.909 45.4031 151.564 50.1602 152.988 54.9859C154.43 59.8117 155.641 64.6974 156.827 69.6088C158.047 74.5116 159.241 79.4573 161.024 84.2659C162.799 89.0659 165.264 93.7202 168.651 97.7573C169.495 98.7602 170.365 99.763 171.304 100.697C172.216 101.649 173.18 102.566 174.161 103.457C176.14 105.24 178.264 106.903 180.525 108.403C185.072 111.394 190.173 113.734 195.547 115.406C196.11 115.586 196.767 115.303 197.015 114.789C197.253 114.283 197.006 113.726 196.46 113.546C195.172 113.109 193.892 112.654 192.638 112.149C192.007 111.909 191.393 111.634 190.77 111.377C190.165 111.094 189.542 110.837 188.945 110.546C186.539 109.397 184.244 108.094 182.078 106.646C177.736 103.757 173.905 100.243 170.664 96.3945C169.068 94.4487 167.644 92.3916 166.416 90.2316C165.187 88.0716 164.155 85.8088 163.268 83.4773C161.493 78.8231 160.265 73.9373 159.002 69.0431C157.731 64.1574 156.418 59.2459 154.874 54.4202C154.106 52.0031 153.296 49.6031 152.434 47.2202C152.007 46.0288 151.564 44.8374 151.112 43.6545C150.651 42.4717 150.182 41.2974 149.704 40.1231C147.776 35.4345 145.678 30.806 143.417 26.2546C141.131 21.7203 138.7 17.246 136.072 12.8746C135.996 12.746 135.816 12.7117 135.671 12.7889C135.535 12.8403 135.484 12.9946 135.543 13.1231Z" fill="white"/>
<path d="M176.122 97.9714C175.448 99.3085 173.631 99.5142 172.659 98.3742C167.302 92.0999 153.738 72.9943 158.788 44.9057C163.053 21.1886 163.122 7.92008 162.738 1.89437C162.652 0.617233 164.239 -0.0170512 165.058 0.96009C174.083 11.7344 200.665 49.5943 176.122 97.9714Z" fill="#BDD0FB"/>
<path d="M174.117 97.7311C174.083 97.7482 174.049 97.7654 174.015 97.7739C173.707 97.8597 173.383 97.6797 173.298 97.3625C173.204 97.0111 163.659 61.6712 168.111 28.4228C168.154 28.1057 168.444 27.8742 168.768 27.9171C169.084 27.9599 169.314 28.2514 169.272 28.5771C164.861 61.5855 174.33 96.6939 174.433 97.0454C174.492 97.3282 174.364 97.6111 174.117 97.7311Z" fill="white"/>
<path d="M225.362 238.072H153.875V104.863C153.875 98.3319 159.147 93.0347 165.647 93.0347H213.598C220.099 93.0347 225.371 98.3319 225.371 104.863V238.072H225.362Z" fill="#7D97F4"/>
<path d="M204.291 238.07H132.805V96.5049C132.805 94.5935 134.349 93.0421 136.251 93.0421H200.845C202.747 93.0421 204.291 94.5935 204.291 96.5049V238.07Z" fill="#91B3FA"/>
<path d="M156.086 238.071H83.4897V126.462C83.4897 124.551 85.0338 123 86.9361 123H152.631C154.533 123 156.077 124.551 156.077 126.462V238.071H156.086Z" fill="url(#paint1_linear)"/>
<path d="M137.642 238.071H65.0544V126.462C65.0544 124.551 66.5985 123 68.5008 123H134.195C136.098 123 137.642 124.551 137.642 126.462V238.071Z" fill="url(#paint2_linear)"/>
<path d="M82.3883 238.072H19.8413V168.617C19.8413 162.086 25.1133 156.789 31.6137 156.789H70.6245C77.1249 156.789 82.3968 162.086 82.3968 168.617V238.072H82.3883Z" fill="#7D97F4"/>
<path d="M63.953 238.07H1.40601V160.259C1.40601 158.348 2.95006 156.796 4.8524 156.796H60.5066C62.4089 156.796 63.953 158.348 63.953 160.259V238.07Z" fill="#91B3FA"/>
<path d="M83.7946 61.0034L78.207 69.6434C80.8089 74.7348 83.6922 77.5462 86.5841 78.8834C87.096 75.7119 88.9471 73.0805 90.295 71.5119C85.1425 68.572 83.7946 61.0034 83.7946 61.0034Z" fill="#3040C2"/>
<path d="M103.006 69.9603C97.2822 73.3631 93.1961 73.166 90.3043 71.5117C88.9479 73.0717 87.1053 75.7117 86.5935 78.8831C95.7808 83.1259 104.977 72.4374 104.977 72.4374L103.006 69.9603Z" fill="url(#paint3_linear)"/>
<path d="M103.313 71.4429C103.313 71.4429 101.769 68.7344 103.987 66.6601C103.987 66.6601 104.703 65.8373 105.488 67.0458C105.488 67.0458 107.877 64.8687 108.533 65.743C109.19 66.6173 110.922 68.7944 109.224 71.2801C107.518 73.7829 104.072 72.6686 103.313 71.4429Z" fill="url(#paint4_linear)"/>
<path d="M105.668 69.9522C105.438 69.9522 105.191 69.9094 104.977 69.7808C104.764 69.6522 104.5 69.3865 104.431 68.8464C104.414 68.6835 104.525 68.5378 104.687 68.5207C104.849 68.5035 104.994 68.6149 105.012 68.7778C105.046 69.0264 105.131 69.1893 105.284 69.2836C105.489 69.4036 105.796 69.3865 106.027 69.335L105.489 67.6205C105.438 67.4662 105.523 67.3034 105.677 67.2519C105.83 67.2005 105.993 67.2862 106.044 67.4405L106.675 69.4379C106.718 69.5836 106.649 69.7379 106.504 69.7979C106.419 69.8151 106.069 69.9522 105.668 69.9522Z" fill="#F79E6D"/>
<path d="M21.999 127.997C21.5042 128.297 21.2483 128.932 21.3677 129.549C21.8369 131.992 23.3639 138.446 27.0918 142.269C27.3392 142.518 27.6975 142.5 27.9107 142.269C26.9638 141.283 25.7951 139.595 24.4302 136.723C22.3317 132.326 21.9393 129.609 21.999 127.997Z" fill="#3040C2"/>
<path d="M26.8108 127.904C26.8108 127.904 24.4051 126.592 22.0166 127.981C22.008 127.981 22.008 127.989 21.9995 127.989C21.9398 129.601 22.3322 132.318 24.4307 136.724C25.7956 139.587 26.9643 141.275 27.9112 142.269C27.9794 142.201 28.0306 142.107 28.0648 141.995C28.7728 139.552 30.2486 132.764 26.8108 127.904Z" fill="url(#paint5_linear)"/>
<path d="M30.2827 128.058L28.1074 130.157C27.7235 130.526 27.1349 130.586 26.6913 130.294C26.3075 130.037 25.8724 129.609 25.5824 128.923C25.4118 128.512 25.4885 128.032 25.7956 127.706L27.9709 125.306C28.4913 124.732 29.4126 124.826 29.805 125.495L30.4874 126.652C30.7433 127.098 30.6666 127.689 30.2827 128.058Z" fill="url(#paint6_linear)"/>
<path d="M100.643 117.532C101.146 117.814 101.82 117.729 102.298 117.317C104.183 115.706 109.003 111.172 110.47 106.029C110.564 105.686 110.368 105.386 110.069 105.309C109.685 106.62 108.798 108.48 106.998 111.086C104.217 115.106 102.059 116.786 100.643 117.532Z" fill="#3040C2"/>
<path d="M98.1868 113.375C98.1868 113.375 98.2379 116.118 100.627 117.523C100.635 117.523 100.635 117.532 100.644 117.532C102.068 116.786 104.226 115.106 106.999 111.095C108.807 108.48 109.686 106.629 110.07 105.318C109.976 105.292 109.865 105.292 109.754 105.318C107.298 105.909 100.695 107.966 98.1868 113.375Z" fill="url(#paint7_linear)"/>
<path d="M98.0156 108.823L100.293 110.812C100.694 111.163 100.805 111.746 100.558 112.218C100.336 112.629 99.952 113.101 99.2952 113.452C98.9028 113.658 98.4251 113.624 98.0668 113.349L95.4907 111.386C94.8765 110.915 94.8851 109.989 95.5163 109.535L96.5996 108.755C97.0261 108.446 97.6147 108.472 98.0156 108.823Z" fill="url(#paint8_linear)"/>
<path d="M52.3776 88.6717C52.3776 88.6717 47.9417 103.869 45.0668 110.546C45.0668 110.546 40.0508 111.318 36.9456 113.135C33.8404 114.96 27.1523 125.058 27.1523 125.058C27.1523 125.058 28.9011 128.392 31.0082 128.898L50.0487 115.646L65.2419 97.8946L64.5168 89.6574L52.3776 88.6717Z" fill="url(#paint9_linear)"/>
<path d="M52.649 87.4287L51.3523 91.5858C51.3523 91.5858 52.538 102.497 66.2298 100.654C79.9129 98.8115 81.6361 96.5658 81.6361 96.5658C81.6361 96.5658 80.4504 103.534 95.4131 111.909C95.4131 111.909 97.6908 110.186 98.1856 108.223L87.7014 90.8572C86.2427 88.5773 84.8863 87.9773 82.2247 88.3973C76.3386 89.323 65.3085 90.5315 63.6364 90.2401L52.649 87.4287Z" fill="url(#paint10_linear)"/>
<path d="M63.3391 56.4943C59.3467 56.7 53.0425 58.6028 48.9734 62.3743C50.2274 63.7628 52.1553 66.0171 53.5885 68.2457C54.8681 67.0371 56.7107 66.0257 59.3041 65.3828C57.0605 73.7999 54.416 81.8227 51.1828 89.2799C50.9781 89.7427 51.2084 90.2827 51.6861 90.4541C54.1856 91.3284 61.5562 93.4113 67.4679 90.0599L80.5711 71.2114C81.9787 69.1799 82.9085 66.8571 83.2753 64.4142L83.7957 61.0114C83.7957 61.0028 72.0319 56.0486 63.3391 56.4943Z" fill="#3040C2"/>
<path d="M56.1899 85.0202C55.6183 83.7602 53.6733 82.5773 52.7435 82.0716C51.9331 80.3916 48.7 72.8573 53.588 68.2459C52.1549 66.0173 50.227 63.7545 48.973 62.3745C44.2726 66.7202 42.5579 73.5516 50.79 83.1087C50.3379 85.4659 51.8051 88.2087 52.5985 88.5859C52.9738 88.7659 56.9491 86.7002 56.1899 85.0202Z" fill="url(#paint11_linear)"/>
<path d="M60.0635 65.0918L63.7061 64.3033L60.0635 65.0918Z" fill="url(#paint12_linear)"/>
<path d="M72.1937 51.4887L68.773 58.2172C68.5682 58.6286 68.6279 59.1257 68.935 59.4686C69.7625 60.3943 71.7245 61.9028 75.1282 60.8228C75.5036 60.7028 75.7765 60.3686 75.8277 59.9829L76.7234 53.8716L72.1937 51.4887Z" fill="url(#paint13_linear)"/>
<path d="M77.9 43.6717C77.9 43.6717 79.9046 48.3088 80.0411 50.7345C80.1776 53.1688 80.698 54.7459 77.9 55.2345C75.102 55.7231 72.7391 54.3259 71.4681 51.9002C71.4681 51.9002 69.4634 48.1631 69.9155 46.6374C70.3591 45.1117 77.9 43.6717 77.9 43.6717Z" fill="url(#paint14_linear)"/>
<path d="M72.4152 50.1601L72.5773 50.0915C72.782 50.0058 72.8673 49.7572 72.765 49.5601C72.3726 48.7973 71.6048 47.0401 72.5944 46.6287C73.874 46.0973 78.9497 45.0601 80.0417 43.2516C81.0909 41.5116 80.1611 39.2659 78.762 38.6316C78.6682 38.5887 78.5573 38.623 78.5061 38.7173L78.3867 38.9402C78.3099 39.0944 78.0796 39.0687 78.0369 38.9059C77.9943 38.7516 77.781 38.7173 77.6957 38.8544C77.363 39.3944 76.4502 40.2773 74.019 40.723C70.5641 41.3659 68.2864 42.7716 68.2266 45.163C68.2266 45.3173 68.0646 45.403 67.9281 45.3173C67.6722 45.163 67.2627 45.0858 66.7167 45.5487C65.7698 46.3458 66.1537 48.4287 68.2352 50.1344C68.3375 50.2115 68.329 50.3744 68.2266 50.443C67.8513 50.6915 67.2883 51.2744 68.747 52.0544C70.2569 52.8601 71.3745 52.8001 71.8095 52.723C71.9204 52.7058 71.9887 52.603 71.9631 52.4915L71.5024 50.383C71.4768 50.263 71.5707 50.1515 71.6901 50.1515H72.4152V50.1601Z" fill="url(#paint15_linear)"/>
<path d="M72.5087 50.6063C72.5087 50.6063 71.741 47.649 70.4188 48.4719C69.0966 49.3033 71.1012 51.7891 72.1675 51.9006L72.5087 50.6063Z" fill="url(#paint16_linear)"/>
<path d="M185.822 87.5576H181.31L174.212 66.5833L193.935 65.3747L185.822 87.5576Z" fill="url(#paint17_linear)"/>
<path d="M162.2 27.618C162.175 29.3923 162.174 64.0466 179.688 69.678C197.201 75.3094 205.109 45.978 204.478 25.098L162.2 27.618Z" fill="url(#paint18_linear)"/>
<path d="M197.56 90.7378H169.562V94.1492H197.56V90.7378Z" fill="url(#paint19_linear)"/>
<path d="M197.56 90.7374H169.562L176.651 86.9146H190.479L197.56 90.7374Z" fill="url(#paint20_linear)"/>
<path d="M160.178 22.6976C158.643 22.7919 157.38 23.9319 157.38 25.2347V27.9004C157.38 29.2032 158.634 30.206 160.178 30.1203L208.172 27.5232C209.707 27.4375 210.97 26.3061 210.97 25.0033V21.9605C210.97 20.6576 209.716 19.6634 208.172 19.7577L160.178 22.6976Z" fill="url(#paint21_linear)"/>
<path d="M192.091 72.4298C190.974 72.4298 190.01 71.7183 189.882 70.7583C189.745 69.7212 190.624 68.7869 191.844 68.6669C192.074 68.6411 208.18 66.9354 209.707 58.0811C209.963 56.5896 209.937 54.6353 208.342 53.821C207.02 53.1525 204.861 53.3667 203.317 54.3182C202.439 54.8582 201.475 55.8096 201.884 57.2582C202.174 58.2696 201.432 59.2897 200.229 59.5297C199.035 59.7697 197.832 59.1439 197.542 58.1325C196.8 55.5096 197.977 52.9382 200.682 51.2667C203.684 49.4067 207.779 49.1239 210.637 50.581C212.309 51.4296 214.979 53.6068 214.117 58.6125C213.264 63.5668 209.152 67.5269 202.217 70.0812C197.244 71.9155 192.543 72.3869 192.347 72.404C192.262 72.4212 192.177 72.4298 192.091 72.4298Z" fill="url(#paint22_linear)"/>
<path d="M175.389 72.4297C176.507 72.4297 177.471 71.7183 177.599 70.7583C177.735 69.7211 176.857 68.7868 175.637 68.6668C175.406 68.6411 159.3 66.9354 157.773 58.0811C157.517 56.5896 157.543 54.6353 159.138 53.821C160.46 53.1525 162.619 53.3667 164.163 54.3182C165.041 54.8582 166.005 55.8096 165.596 57.2582C165.306 58.2696 166.048 59.2896 167.251 59.5296C168.445 59.7696 169.648 59.1439 169.938 58.1325C170.68 55.5096 169.503 52.9382 166.799 51.2667C163.796 49.4067 159.701 49.1238 156.843 50.581C155.171 51.4296 152.501 53.6067 153.363 58.6125C154.216 63.5668 158.328 67.5268 165.263 70.0811C170.237 71.9154 174.937 72.3869 175.133 72.404C175.219 72.4212 175.304 72.4297 175.389 72.4297Z" fill="url(#paint23_linear)"/>
<path d="M159.462 236.614H233.909V221.64H159.462C161.058 221.64 161.058 236.614 159.462 236.614Z" fill="#BDD0FB"/>
<path d="M233.91 232.869V226.02C233.91 223.603 232.442 221.649 230.625 221.649H159.778C158.354 221.649 157.193 220.483 157.193 219.052C157.193 218.614 157.543 218.263 157.978 218.263H235.402C237.177 218.263 240 221.066 240 224.529V234.094C240 237.36 237.262 240 235.59 240H158.388C157.731 240 157.193 239.46 157.193 238.8C157.193 237.592 158.166 236.614 159.369 236.614H231.094C232.647 236.614 233.91 234.934 233.91 232.869Z" fill="#3040C2"/>
<path d="M231.845 225.009H162.038C161.876 225.009 161.748 224.88 161.748 224.717C161.748 224.555 161.876 224.426 162.038 224.426H231.845C232.007 224.426 232.135 224.555 232.135 224.717C232.135 224.88 232.007 225.009 231.845 225.009Z" fill="url(#paint24_linear)"/>
<path d="M231.845 227.229H162.038C161.876 227.229 161.748 227.1 161.748 226.937C161.748 226.774 161.876 226.646 162.038 226.646H231.845C232.007 226.646 232.135 226.774 232.135 226.937C232.135 227.1 232.007 227.229 231.845 227.229Z" fill="url(#paint25_linear)"/>
<path d="M231.845 229.449H162.038C161.876 229.449 161.748 229.32 161.748 229.157C161.748 228.994 161.876 228.866 162.038 228.866H231.845C232.007 228.866 232.135 228.994 232.135 229.157C232.135 229.32 232.007 229.449 231.845 229.449Z" fill="url(#paint26_linear)"/>
<path d="M231.845 231.677H162.038C161.876 231.677 161.748 231.549 161.748 231.386C161.748 231.223 161.876 231.094 162.038 231.094H231.845C232.007 231.094 232.135 231.223 232.135 231.386C232.135 231.54 232.007 231.677 231.845 231.677Z" fill="url(#paint27_linear)"/>
<path d="M231.845 233.897H162.038C161.876 233.897 161.748 233.769 161.748 233.606C161.748 233.443 161.876 233.314 162.038 233.314H231.845C232.007 233.314 232.135 233.443 232.135 233.606C232.135 233.769 232.007 233.897 231.845 233.897Z" fill="url(#paint28_linear)"/>
<path d="M167.95 218.194H232.681C233.304 218.194 233.807 217.688 233.807 217.063V203.083C233.807 202.457 233.304 201.951 232.681 201.951H167.95C167.328 201.951 166.824 202.457 166.824 203.083V217.063C166.816 217.68 167.328 218.194 167.95 218.194Z" fill="url(#paint29_linear)"/>
<path d="M218.98 216.325H225.617C225.958 216.325 226.231 216.051 226.231 215.708V204.428C226.231 204.085 225.958 203.811 225.617 203.811H218.98C218.639 203.811 218.366 204.085 218.366 204.428V215.7C218.366 216.043 218.639 216.325 218.98 216.325Z" fill="url(#paint30_linear)"/>
<path d="M214.571 216.325H216.9C217.07 216.325 217.216 216.188 217.216 216.008V204.128C217.216 203.957 217.079 203.811 216.9 203.811H214.571C214.4 203.811 214.255 203.948 214.255 204.128V216.008C214.255 216.18 214.392 216.325 214.571 216.325Z" fill="url(#paint31_linear)"/>
<path d="M6.23486 238.38C6.23486 238.38 133.086 213.377 212.507 98.4003L203.302 95.2032C200.76 94.3203 200.214 90.9432 202.355 89.2975L231.564 66.8318C233.782 65.1261 236.972 66.7718 236.887 69.5746L235.701 106.989C235.625 109.483 232.75 110.829 230.796 109.277L222.991 103.072C222.991 103.072 182.496 213.806 104.474 238.372H6.23486V238.38Z" fill="#3040C2"/>
</g>
<defs>
<linearGradient id="paint0_linear" x1="267.55" y1="309.555" x2="54.6603" y2="46.4172" gradientUnits="userSpaceOnUse">
<stop stop-color="#DAE3FE"/>
<stop offset="1" stop-color="#E9EFFD"/>
</linearGradient>
<linearGradient id="paint1_linear" x1="70.3729" y1="180.899" x2="212.592" y2="179.898" gradientUnits="userSpaceOnUse">
<stop stop-color="#FF928E"/>
<stop offset="1" stop-color="#FE7062"/>
</linearGradient>
<linearGradient id="paint2_linear" x1="156.817" y1="96.634" x2="-22.3173" y2="368.901" gradientUnits="userSpaceOnUse">
<stop stop-color="#FF928E"/>
<stop offset="1" stop-color="#FE7062"/>
</linearGradient>
<linearGradient id="paint3_linear" x1="107.188" y1="68.3996" x2="65.1137" y2="88.6843" gradientUnits="userSpaceOnUse">
<stop stop-color="#FEBBBA"/>
<stop offset="1" stop-color="#FF928E"/>
</linearGradient>
<linearGradient id="paint4_linear" x1="107.388" y1="68.8149" x2="65.3141" y2="89.0993" gradientUnits="userSpaceOnUse">
<stop stop-color="#FEBBBA"/>
<stop offset="1" stop-color="#FF928E"/>
</linearGradient>
<linearGradient id="paint5_linear" x1="21.9957" y1="134.808" x2="28.9925" y2="134.808" gradientUnits="userSpaceOnUse">
<stop stop-color="#09005D"/>
<stop offset="1" stop-color="#1A0F91"/>
</linearGradient>
<linearGradient id="paint6_linear" x1="25.4888" y1="127.699" x2="30.6339" y2="127.699" gradientUnits="userSpaceOnUse">
<stop stop-color="#FEBBBA"/>
<stop offset="1" stop-color="#FF928E"/>
</linearGradient>
<linearGradient id="paint7_linear" x1="98.1833" y1="111.41" x2="110.068" y2="111.41" gradientUnits="userSpaceOnUse">
<stop stop-color="#09005D"/>
<stop offset="1" stop-color="#1A0F91"/>
</linearGradient>
<linearGradient id="paint8_linear" x1="95.0322" y1="111.064" x2="100.685" y2="111.064" gradientUnits="userSpaceOnUse">
<stop stop-color="#FEBBBA"/>
<stop offset="1" stop-color="#FF928E"/>
</linearGradient>
<linearGradient id="paint9_linear" x1="60.1326" y1="92.8544" x2="-8.76203" y2="164.042" gradientUnits="userSpaceOnUse">
<stop stop-color="#09005D"/>
<stop offset="1" stop-color="#1A0F91"/>
</linearGradient>
<linearGradient id="paint10_linear" x1="173.561" y1="49.1161" x2="94.8103" y2="88.7394" gradientUnits="userSpaceOnUse">
<stop stop-color="#09005D"/>
<stop offset="1" stop-color="#1A0F91"/>
</linearGradient>
<linearGradient id="paint11_linear" x1="55.0663" y1="82.1989" x2="29.8894" y2="37.9119" gradientUnits="userSpaceOnUse">
<stop stop-color="#FEBBBA"/>
<stop offset="1" stop-color="#FF928E"/>
</linearGradient>
<linearGradient id="paint12_linear" x1="70.9316" y1="-13.8618" x2="58.5895" y2="92.3041" gradientUnits="userSpaceOnUse">
<stop stop-color="#CB236D"/>
<stop offset="1" stop-color="#4C246D"/>
</linearGradient>
<linearGradient id="paint13_linear" x1="70.8679" y1="63.2015" x2="73.506" y2="55.7138" gradientUnits="userSpaceOnUse">
<stop stop-color="#FEBBBA"/>
<stop offset="1" stop-color="#FF928E"/>
</linearGradient>
<linearGradient id="paint14_linear" x1="78.3172" y1="47.7487" x2="66.7985" y2="56.5201" gradientUnits="userSpaceOnUse">
<stop stop-color="#FEBBBA"/>
<stop offset="1" stop-color="#FF928E"/>
</linearGradient>
<linearGradient id="paint15_linear" x1="70.2373" y1="40.7613" x2="80.9913" y2="54.5413" gradientUnits="userSpaceOnUse">
<stop stop-color="#09005D"/>
<stop offset="1" stop-color="#1A0F91"/>
</linearGradient>
<linearGradient id="paint16_linear" x1="76.8933" y1="45.8792" x2="65.3743" y2="54.6503" gradientUnits="userSpaceOnUse">
<stop stop-color="#FEBBBA"/>
<stop offset="1" stop-color="#FF928E"/>
</linearGradient>
<linearGradient id="paint17_linear" x1="239.338" y1="-55.2269" x2="215.277" y2="-2.07599" gradientUnits="userSpaceOnUse">
<stop stop-color="#FF928E"/>
<stop offset="1" stop-color="#FE7062"/>
</linearGradient>
<linearGradient id="paint18_linear" x1="174.134" y1="81.3228" x2="183.537" y2="31.0271" gradientUnits="userSpaceOnUse">
<stop stop-color="#FF928E"/>
<stop offset="1" stop-color="#FE7062"/>
</linearGradient>
<linearGradient id="paint19_linear" x1="183.83" y1="88.0502" x2="182.154" y2="115.367" gradientUnits="userSpaceOnUse">
<stop stop-color="#FF928E"/>
<stop offset="1" stop-color="#FE7062"/>
</linearGradient>
<linearGradient id="paint20_linear" x1="239.02" y1="11.0425" x2="188.627" y2="82.774" gradientUnits="userSpaceOnUse">
<stop stop-color="#FF928E"/>
<stop offset="1" stop-color="#FE7062"/>
</linearGradient>
<linearGradient id="paint21_linear" x1="185.675" y1="10.2219" x2="194.49" y2="-76.351" gradientUnits="userSpaceOnUse">
<stop stop-color="#FF928E"/>
<stop offset="0.3458" stop-color="#FF867F"/>
<stop offset="1" stop-color="#FE7062"/>
</linearGradient>
<linearGradient id="paint22_linear" x1="214.237" y1="47.0614" x2="168.5" y2="104.017" gradientUnits="userSpaceOnUse">
<stop stop-color="#FF928E"/>
<stop offset="1" stop-color="#FE7062"/>
</linearGradient>
<linearGradient id="paint23_linear" x1="153.245" y1="47.0614" x2="198.981" y2="104.018" gradientUnits="userSpaceOnUse">
<stop stop-color="#FF928E"/>
<stop offset="1" stop-color="#FE7062"/>
</linearGradient>
<linearGradient id="paint24_linear" x1="161.751" y1="224.716" x2="232.135" y2="224.716" gradientUnits="userSpaceOnUse">
<stop stop-color="#DAE3FE"/>
<stop offset="1" stop-color="#E9EFFD"/>
</linearGradient>
<linearGradient id="paint25_linear" x1="161.751" y1="226.938" x2="232.135" y2="226.938" gradientUnits="userSpaceOnUse">
<stop stop-color="#DAE3FE"/>
<stop offset="1" stop-color="#E9EFFD"/>
</linearGradient>
<linearGradient id="paint26_linear" x1="161.751" y1="229.16" x2="232.135" y2="229.16" gradientUnits="userSpaceOnUse">
<stop stop-color="#DAE3FE"/>
<stop offset="1" stop-color="#E9EFFD"/>
</linearGradient>
<linearGradient id="paint27_linear" x1="161.751" y1="231.382" x2="232.135" y2="231.382" gradientUnits="userSpaceOnUse">
<stop stop-color="#DAE3FE"/>
<stop offset="1" stop-color="#E9EFFD"/>
</linearGradient>
<linearGradient id="paint28_linear" x1="161.751" y1="233.604" x2="232.135" y2="233.604" gradientUnits="userSpaceOnUse">
<stop stop-color="#DAE3FE"/>
<stop offset="1" stop-color="#E9EFFD"/>
</linearGradient>
<linearGradient id="paint29_linear" x1="208.11" y1="188.125" x2="258.617" y2="47.3777" gradientUnits="userSpaceOnUse">
<stop stop-color="#FE7062"/>
<stop offset="1" stop-color="#FF928E"/>
</linearGradient>
<linearGradient id="paint30_linear" x1="261.989" y1="126.455" x2="170.523" y2="317.306" gradientUnits="userSpaceOnUse">
<stop stop-color="#FF928E"/>
<stop offset="1" stop-color="#FE7062"/>
</linearGradient>
<linearGradient id="paint31_linear" x1="255.494" y1="126.303" x2="166.787" y2="311.399" gradientUnits="userSpaceOnUse">
<stop stop-color="#FF928E"/>
<stop offset="1" stop-color="#FE7062"/>
</linearGradient>
<clipPath id="clip0">
<rect width="240" height="240" fill="white"/>
</clipPath>
</defs>
</svg>
