{
  "includes": [
    "./src/*"
  ],
  "exclude": [
    "./src/Migrations/*",
    "./tests/*"
  ],
  "report": {
    "html": "./public/report/phpmetrics",
    "violations": "./public/report/phpmetrics-violations.xml"
  },
  "groups": [],
  "plugins": {
    "git": {
      "binary": "git"
    },
    "junit": {
      "file": "./public/report/phpunit-junit.xml"
    }
  },
  "extensions": [
    "php",
    "php8"
  ],
  "default": [
    "php"
  ]
}
