<svg width="73" height="73" viewBox="0 0 73 73" fill="none" xmlns="http://www.w3.org/2000/svg">
<circle cx="36.5" cy="36.5" r="36.5" fill="#5A98FB"/>
<path fill-rule="evenodd" clip-rule="evenodd" d="M53.4001 21.5C54.1001 20.6 54.4001 19.9 54.0001 19.2C53.7001 19.6 53.2001 19.6 52.7001 19.8C54.7001 17.8 56.0001 16.2 55.0001 14.7C54.5001 15.2 53.9001 15.3 53.2001 15.5C55.1001 13.3 56.0001 11.6 55.0001 10C53.5001 11.7 50.7001 10.5 47.8001 13.4C46.8001 14.4 46.0001 15.4 45.4001 16.3C43.6001 15.8 41.6001 15.5 39.6001 15.5H39.3001C37.3001 15.5 35.3001 15.8 33.5001 16.5C32.9001 15.5 32.0001 14.5 31.0001 13.4C28.1001 10.5 25.4001 11.7 23.9001 10C22.9001 11.6 23.8001 13.3 25.7001 15.5C24.9001 15.3 24.3001 15.2 23.9001 14.7C23.0001 16.1 24.2001 17.7 26.2001 19.8C25.7001 19.7 25.2001 19.6 24.9001 19.2C24.4001 20 24.8001 20.8 25.8001 21.9C23.4001 24.8 22.0001 28.6 22.0001 32.7V38.8C19.9001 38.7 17.9001 39 16.5001 40.4C13.1001 44.1 16.7001 56.5 17.1001 62.8C20.6001 62 28.8001 55.6 30.3001 48.8V49.5C28.5001 57.3 21.9001 61.5 21.9001 61.5V62.8C50.3001 62.8 56.9001 50.1 56.9001 32.7C57.0001 28 55.6001 24.3 53.4001 21.5Z" fill="black"/>
<path fill-rule="evenodd" clip-rule="evenodd" d="M47.1001 21.8C43.4001 21.8 40.2001 24.4 39.5001 28C38.7001 24.5 35.6001 21.8 31.9001 21.8C27.6001 21.8 24.1001 25.3 24.1001 29.6C24.1001 33.9 27.6001 37.4 31.9001 37.4C34.0001 37.4 35.9001 36.6 37.2001 35.3L39.5001 39.2001L41.8001 35.3C43.2001 36.6 45.1001 37.4 47.1001 37.4C51.4001 37.4 54.9001 33.9 54.9001 29.6C54.8001 25.3 51.4001 21.8 47.1001 21.8Z" fill="white"/>
<path fill-rule="evenodd" clip-rule="evenodd" d="M46.4 25C49 25 51 27.1 51 29.6C51 32.1 48.9 34.2 46.4 34.2C43.9 34.2 41.8 32.1 41.8 29.6C41.8 28.7 42.1 27.8 42.6 27L46.7001 29.8C46.7001 29.8 44.7001 25.4 44.7001 25.3C45.1001 25.1 45.7 25 46.4 25Z" fill="black"/>
<path fill-rule="evenodd" clip-rule="evenodd" d="M32.5001 25C35.1001 25 37.1001 27.1 37.1001 29.6C37.1001 32.1 35.0001 34.2 32.5001 34.2C30.0001 34.2 27.9001 32.1 27.9001 29.6C27.9001 28.7 28.2001 27.8 28.7001 27L32.8001 29.8C32.8001 29.8 30.8001 25.4 30.8001 25.3C31.3001 25.1 31.9001 25 32.5001 25Z" fill="black"/>
<path fill-rule="evenodd" clip-rule="evenodd" d="M37.9001 45.5C37.9001 44.8 40.9001 44.8 40.9001 45.5C40.9001 47.9 42.4001 55.4 42.4001 55.4L39.4001 58L36.4001 55.3C36.4001 55.3 37.9001 47.9 37.9001 45.5Z" fill="#FF0000"/>
<path fill-rule="evenodd" clip-rule="evenodd" d="M41.5 42.1C41.5 41.4 37.3 41.4 37.3 42.1C37.3 42.4 37.6 44.4 38 44.1C38.6 43.6 40.3 43.7 40.9 44.1C41.2 44.3 41.5 42.4 41.5 42.1Z" fill="#FF0000"/>
</svg>
